# Blender v2.75 (sub 0) OBJ File: 'ground.blend'
# www.blender.org
mtllib ground.mtl
o Sphere.001
v 0.614002 1.433268 -0.133094
v 0.565753 1.336294 -0.125206
v 0.591514 1.238603 -0.121743
v 0.706180 1.194573 -0.122883
v 0.669440 1.439494 -0.214177
v 0.610913 1.342498 -0.242994
v 0.628231 1.237700 -0.207787
v 0.738979 1.458911 -0.242025
v 0.722794 1.352146 -0.292675
v 0.713422 1.238604 -0.243653
v 0.805017 1.467890 -0.206251
v 0.818365 1.345795 -0.243720
v 0.792053 1.235645 -0.208291
v 0.810435 1.461137 -0.112811
v 0.806077 1.344619 -0.126731
v 0.812797 1.228856 -0.122687
v 0.800107 1.428567 -0.032956
v 0.830903 1.323565 -0.053023
v 0.794490 1.234552 -0.065246
v 0.752721 1.388000 -0.041549
v 0.753695 1.303203 -0.058888
v 0.722311 1.233097 -0.065141
v 0.729622 1.485701 -0.108197
v 0.683113 1.384757 -0.064201
v 0.617613 1.331195 -0.036772
v 0.628301 1.238261 -0.052501
v 1.098221 1.311942 -0.159606
v 0.967456 1.288637 -0.164702
v 0.971212 1.210592 -0.164702
v 1.093122 1.160096 -0.164702
v 1.088733 1.376134 -0.250905
v 0.986423 1.318227 -0.286612
v 1.006919 1.210592 -0.250905
v 1.108333 1.440137 -0.286612
v 1.093122 1.332502 -0.337108
v 1.093122 1.210592 -0.286612
v 1.173943 1.449497 -0.250905
v 1.198493 1.317401 -0.286612
v 1.173943 1.205678 -0.250905
v 1.197599 1.426461 -0.154595
v 1.217298 1.288465 -0.164702
v 1.198493 1.195491 -0.164702
v 1.171005 1.407247 -0.045266
v 1.197615 1.304776 -0.032862
v 1.173943 1.205678 -0.078499
v 1.104274 1.381765 0.003122
v 1.091401 1.307745 0.027177
v 1.093122 1.210592 -0.042793
v 1.134444 1.435261 -0.147203
v 1.085810 1.334097 -0.045433
v 0.985970 1.311713 -0.037669
v 1.006919 1.210592 -0.078499
v -0.588627 0.991260 0.848493
v -0.202279 0.991260 0.804205
v -0.542246 0.991260 0.531710
v -0.317571 0.991260 0.435710
v -0.667506 0.991260 0.753078
v -0.372051 0.991260 0.881113
v -0.271179 0.991260 0.577647
v -0.408559 0.991260 0.384007
v -0.364808 0.991260 0.681101
v -0.621751 0.991260 0.799452
v -0.246480 0.991260 0.880026
v -0.294438 0.991260 0.489657
v -0.459746 0.991260 0.466385
v -0.660007 0.991260 0.656361
v -0.510203 0.991260 0.849319
v -0.244226 0.991260 0.698306
v -0.362339 0.991260 0.397718
v -0.401851 0.991260 0.517741
v -0.357470 0.991260 0.803992
v -0.483853 0.991260 0.693951
v -0.303968 0.991260 0.619134
v -0.266931 0.991260 0.776753
v -0.500650 0.991260 0.791087
v -0.493589 0.991260 0.596832
v -0.343116 0.991260 0.484022
v -0.588627 1.034779 0.848493
v -0.202279 1.034779 0.804205
v -0.542246 1.034779 0.531710
v -0.317571 1.034779 0.435710
v -0.667506 1.034779 0.753078
v -0.372051 1.034779 0.881113
v -0.271179 1.034779 0.577647
v -0.408559 1.034779 0.384007
v -0.364808 1.034779 0.681101
v -0.621751 1.034779 0.799452
v -0.246480 1.034779 0.880026
v -0.294438 1.034779 0.489657
v -0.459746 1.034779 0.466385
v -0.660007 1.034779 0.656361
v -0.510203 1.034779 0.849319
v -0.244226 1.034779 0.698306
v -0.362339 1.034779 0.397718
v -0.401851 1.034779 0.517741
v -0.357470 1.034779 0.803992
v -0.483853 1.034779 0.693951
v -0.303968 1.034779 0.619134
v -0.266931 1.034779 0.776753
v -0.500650 1.034779 0.791087
v -0.493589 1.034779 0.596832
v -0.343116 1.034779 0.484022
v -0.096768 0.991260 0.339535
v 0.107388 0.991260 0.308752
v -0.131189 0.991260 0.149925
v 0.062318 0.991260 0.085363
v -0.150505 0.991260 0.280937
v 0.003431 0.991260 0.359306
v 0.116307 0.991260 0.168992
v -0.050487 0.991260 0.071078
v 0.035640 0.991260 0.235095
v -0.121116 0.991260 0.309449
v 0.064747 0.991260 0.356306
v 0.089464 0.991260 0.115565
v -0.093725 0.991260 0.115270
v -0.165447 0.991260 0.222342
v -0.059552 0.991260 0.341486
v 0.120779 0.991260 0.242743
v 0.004673 0.991260 0.070683
v -0.043790 0.991260 0.138347
v 0.020276 0.991260 0.315500
v -0.077084 0.991260 0.247472
v 0.096600 0.991260 0.191219
v 0.084772 0.991260 0.292642
v -0.063182 0.991260 0.307651
v -0.103588 0.991260 0.186824
v 0.037995 0.991260 0.109332
v -0.096768 1.034779 0.339535
v 0.107388 1.034779 0.308752
v -0.131189 1.034779 0.149925
v 0.062318 1.034779 0.085363
v -0.150505 1.034779 0.280937
v 0.003431 1.034779 0.359306
v 0.116307 1.034779 0.168992
v -0.050487 1.034779 0.071078
v 0.035640 1.034779 0.235095
v -0.121116 1.034779 0.309449
v 0.064747 1.034779 0.356306
v 0.089464 1.034779 0.115565
v -0.093725 1.034779 0.115270
v -0.165447 1.034779 0.222342
v -0.059552 1.034779 0.341486
v 0.120779 1.034779 0.242743
v 0.004673 1.034779 0.070683
v -0.043790 1.034779 0.138347
v 0.020276 1.034779 0.315500
v -0.077084 1.034779 0.247472
v 0.096600 1.034779 0.191219
v 0.084772 1.034779 0.292642
v -0.063182 1.034779 0.307651
v -0.103588 1.034779 0.186824
v 0.037995 1.034779 0.109332
v 0.469746 0.994414 0.620314
v 0.675189 1.006908 0.573311
v 0.436076 1.000329 0.324177
v 0.650564 0.988060 0.238297
v 0.422930 1.004482 0.519636
v 0.544804 0.998456 0.657138
v 0.693034 1.003080 0.361132
v 0.492792 1.012043 0.203039
v 0.552146 1.035510 0.447919
v 0.456099 1.007968 0.561050
v 0.628955 0.999233 0.649793
v 0.670051 0.989343 0.287107
v 0.458523 1.002852 0.273964
v 0.403932 0.999969 0.433607
v 0.497256 0.997183 0.624931
v 0.685032 1.023010 0.462309
v 0.575453 0.999772 0.207871
v 0.504611 1.001473 0.313499
v 0.547313 1.018699 0.579763
v 0.490019 1.024108 0.458583
v 0.648435 1.019874 0.387557
v 0.621456 1.028857 0.538753
v 0.496289 1.018168 0.557266
v 0.473384 1.007254 0.374703
v 0.595958 0.995639 0.275295
v 0.473792 1.033402 0.632982
v 0.679398 1.046511 0.585561
v 0.439399 1.041672 0.335272
v 0.654825 1.029833 0.248920
v 0.425595 1.043461 0.532620
v 0.550322 1.037292 0.669610
v 0.696007 1.044179 0.372580
v 0.498089 1.054047 0.213211
v 0.556803 1.074847 0.460249
v 0.459590 1.046784 0.573964
v 0.634397 1.037899 0.662431
v 0.673712 1.030815 0.298104
v 0.462707 1.044600 0.284570
v 0.406058 1.039973 0.445963
v 0.501812 1.036268 0.637420
v 0.688216 1.063258 0.474338
v 0.580629 1.041702 0.218148
v 0.509127 1.042608 0.324495
v 0.552370 1.057588 0.592314
v 0.494023 1.063508 0.470960
v 0.651914 1.060275 0.399397
v 0.625832 1.067672 0.551548
v 0.500601 1.057042 0.569964
v 0.477042 1.047726 0.386362
v 0.600404 1.037029 0.286156
v 0.906993 0.964694 0.537643
v 1.280342 0.990360 0.508502
v 0.925950 0.939258 0.143868
v 1.175937 0.990360 0.079567
v 0.912171 0.931276 0.386109
v 1.039526 0.990360 0.605572
v 1.301004 0.990360 0.240146
v 0.932303 0.985803 0.046819
v 1.114137 0.990360 0.367071
v 0.919424 0.946954 0.459160
v 1.181564 0.990360 0.599812
v 1.238822 0.990360 0.137560
v 0.923658 0.962216 0.104133
v 0.920860 0.920116 0.260569
v 0.946083 0.976839 0.555571
v 1.311363 0.990360 0.381757
v 1.042402 0.990360 0.051379
v 0.990372 0.974835 0.163177
v 1.078548 0.990360 0.521459
v 1.009329 0.950071 0.343796
v 1.255353 0.990360 0.282825
v 1.227953 0.990360 0.477570
v 0.974379 0.967379 0.479557
v 0.990995 0.938972 0.214386
v 1.119592 0.990360 0.125591
v 0.906993 1.008213 0.537643
v 1.280342 1.033879 0.508502
v 0.925950 0.982777 0.143868
v 1.175937 1.033879 0.079567
v 0.912171 0.974795 0.386109
v 1.039526 1.033879 0.605572
v 1.301004 1.033879 0.240146
v 0.932303 1.029322 0.046819
v 1.114137 1.033879 0.367071
v 0.919424 0.990473 0.459160
v 1.181564 1.033879 0.599812
v 1.238822 1.033879 0.137560
v 0.923658 1.005735 0.104133
v 0.920860 0.963635 0.260569
v 0.946083 1.020358 0.555571
v 1.311363 1.033879 0.381757
v 1.042402 1.033879 0.051379
v 0.990372 1.018354 0.163177
v 1.078548 1.033879 0.521459
v 1.009329 0.993590 0.343796
v 1.255353 1.033879 0.282825
v 1.227953 1.033879 0.477570
v 0.974379 1.010898 0.479557
v 0.990995 0.982491 0.214386
v 1.119592 1.033879 0.125591
v 1.472628 1.039870 0.134797
v 1.464535 1.020331 0.134797
v 1.472628 1.000791 0.134797
v 1.492168 0.992697 0.134797
v 1.478351 1.039870 0.120980
v 1.472628 1.020331 0.115257
v 1.478351 1.000791 0.120980
v 1.492168 1.039870 0.115257
v 1.492168 1.020331 0.107164
v 1.492168 1.000791 0.115257
v 1.505985 1.039870 0.120980
v 1.511708 1.020331 0.115257
v 1.505985 1.000791 0.120980
v 1.511708 1.039870 0.134797
v 1.519801 1.020331 0.134797
v 1.511708 1.000791 0.134797
v 1.505985 1.039870 0.148614
v 1.511708 1.020331 0.154337
v 1.505985 1.000791 0.148614
v 1.492168 1.039870 0.154337
v 1.492168 1.020331 0.162430
v 1.492168 1.000791 0.154337
v 1.492168 1.047964 0.134797
v 1.478351 1.039870 0.148614
v 1.472628 1.020331 0.154337
v 1.478351 1.000791 0.148614
v 1.727258 0.991260 0.212440
v 2.200189 0.991260 0.153331
v 1.647522 0.991260 -0.151636
v 2.095783 0.991260 -0.275603
v 1.602774 0.991260 0.099924
v 1.959372 0.991260 0.250401
v 2.220850 0.991260 -0.115025
v 1.834469 0.991260 -0.303031
v 2.033984 0.991260 0.011901
v 1.670856 0.991260 0.154670
v 2.101411 0.991260 0.244641
v 2.158669 0.991260 -0.217611
v 1.734308 0.991260 -0.218178
v 1.568162 0.991260 -0.012585
v 1.813471 0.991260 0.216186
v 2.231210 0.991260 0.026587
v 1.962248 0.991260 -0.303791
v 1.849983 0.991260 -0.173867
v 1.998394 0.991260 0.166289
v 1.772857 0.991260 0.035666
v 2.175199 0.991260 -0.072346
v 2.147799 0.991260 0.122400
v 1.805060 0.991260 0.151219
v 1.711459 0.991260 -0.080785
v 2.039438 0.991260 -0.229579
v 1.727258 1.034779 0.212440
v 2.200189 1.034779 0.153331
v 1.647522 1.034779 -0.151636
v 2.095783 1.034779 -0.275603
v 1.602774 1.034779 0.099924
v 1.959372 1.034779 0.250401
v 2.220850 1.034779 -0.115025
v 1.834469 1.034779 -0.303031
v 2.033984 1.034779 0.011901
v 1.670856 1.034779 0.154670
v 2.101411 1.034779 0.244641
v 2.158669 1.034779 -0.217611
v 1.734308 1.034779 -0.218178
v 1.568162 1.034779 -0.012585
v 1.813471 1.034779 0.216186
v 2.231210 1.034779 0.026587
v 1.962248 1.034779 -0.303791
v 1.849983 1.034779 -0.173867
v 1.998394 1.034779 0.166289
v 1.772857 1.034779 0.035666
v 2.175199 1.034779 -0.072346
v 2.147799 1.034779 0.122400
v 1.805060 1.034779 0.151219
v 1.711459 1.034779 -0.080785
v 2.039438 1.034779 -0.229579
v -3.000000 0.686916 2.000000
v 3.000000 0.796500 2.120013
v -3.000000 1.000000 -2.000000
v 3.000000 1.000000 -2.000000
v -3.000000 1.000000 0.000000
v -0.000427 0.979826 2.003081
v 3.000000 1.000000 -0.000000
v -0.000000 1.000000 -2.000000
v -0.000000 1.000000 0.000000
v -3.000000 1.000000 1.000000
v 1.500000 1.000000 2.000000
v 3.000000 1.000000 -1.000000
v -1.500000 1.000000 -2.000000
v -3.000000 1.000000 -1.000000
v -1.500000 1.000000 2.000000
v 3.000000 1.000000 1.000000
v 1.500000 1.000000 -2.000000
v -0.000000 0.785476 -1.000000
v -0.000000 1.000000 1.000000
v -1.500000 1.000000 0.000000
v 1.500000 1.000000 -0.000000
v 1.500000 1.000000 1.000000
v -1.500000 1.000000 1.000000
v -1.500000 1.000000 -1.000000
v 1.500000 1.000000 -1.000000
v -3.000000 0.999393 1.500000
v 2.250000 1.000000 2.000000
v 3.000000 1.000000 -1.500000
v -2.250000 1.000000 -2.000000
v -3.000000 1.000000 -0.500000
v -0.750427 0.979826 2.008605
v 3.000000 1.000000 0.500000
v 0.750000 1.000000 -2.000000
v -0.000000 0.908774 -1.500000
v -0.000000 1.000000 0.500000
v -2.250000 1.000000 0.000000
v 0.750000 1.000000 0.000000
v -3.000000 1.000000 0.500000
v 0.750000 0.738577 2.144881
v 3.000000 1.000000 -0.500000
v -0.750000 1.000000 -2.000000
v -3.000000 1.000000 -1.500000
v -2.250000 1.000000 2.000000
v 3.000000 0.999606 1.500233
v 2.250000 1.000000 -2.000000
v -0.000000 0.908774 -0.500000
v -0.000384 1.004113 1.516119
v -0.750000 1.000000 0.000000
v 2.250000 1.000000 -0.000000
v 1.500000 1.000000 0.500000
v 1.500000 1.000000 1.500000
v 0.750000 1.000176 1.000000
v 2.250000 1.000000 1.000000
v -1.500000 1.000000 0.500000
v -1.500000 1.000000 1.500000
v -2.250000 1.000000 1.000000
v -0.750000 1.000000 1.000000
v -1.500000 1.000000 -1.500000
v -1.500000 1.000000 -0.500000
v -2.250000 1.000000 -1.000000
v -0.750000 0.864869 -1.000000
v 1.500000 1.000000 -1.500000
v 1.500000 1.000000 -0.500000
v 0.750000 0.982590 -1.000000
v 2.250000 1.000000 -1.000000
v 2.250000 1.000000 -0.500000
v 0.750000 0.999954 -0.500000
v 0.750000 0.999954 -1.500000
v -0.750000 0.950245 -0.500000
v -2.250000 1.000000 -0.500000
v -2.250000 1.000000 -1.500000
v -0.750384 1.004113 1.526420
v -2.250000 1.000000 1.500000
v -2.250000 1.000000 0.500000
v 2.250000 1.000000 1.500000
v 0.750000 1.090191 1.629884
v 0.750000 1.000000 0.500000
v 2.250000 1.000000 0.500000
v -0.750000 1.000000 0.500000
v -0.750000 0.950245 -1.500000
v 2.250000 1.000000 -1.500000
v -3.000000 0.837438 1.750000
v 2.625000 0.963691 2.021413
v 3.000000 1.000000 -1.750000
v -2.625000 1.000000 -2.000000
v -3.000000 1.000000 -0.250000
v -0.380575 0.921047 2.131683
v 3.000000 1.000000 0.250000
v 0.375000 1.000000 -2.000000
v -0.000000 0.982590 -1.750000
v -0.000000 1.000000 0.250000
v -2.625000 1.000000 0.000000
v 0.375000 1.000000 0.000000
v -3.000000 1.000000 0.750000
v 1.125000 0.953356 2.014318
v 3.000000 1.000000 -0.750000
v -1.125000 1.000000 -2.000000
v -3.000000 1.000000 -1.250000
v -1.875000 0.686916 2.000000
v 3.000000 1.000000 1.250000
v 1.875000 1.000000 -2.000000
v -0.000000 0.825223 -0.750000
v -0.000000 1.000000 1.250000
v -1.125000 1.000000 0.000000
v 1.875000 1.000000 -0.000000
v 1.500000 1.000000 0.250000
v 1.500000 1.000000 1.250000
v 0.375000 1.000000 1.000000
v 1.875000 1.000000 1.000000
v -1.500000 1.000000 0.250000
v -1.500000 1.000000 1.250000
v -2.625000 1.000000 1.000000
v -1.125000 1.000000 1.000000
v -1.500000 1.000000 -1.750000
v -1.500000 1.000000 -0.750000
v -2.625000 1.000000 -1.000000
v -1.125000 0.982590 -1.000000
v 1.500000 1.000000 -1.750000
v 1.500000 1.000000 -0.750000
v 0.375000 0.864869 -1.000000
v 1.875000 1.000000 -1.000000
v -3.000000 1.000000 1.250000
v 1.875000 1.000000 2.000000
v 3.000000 1.000000 -1.250000
v -1.875000 1.000000 -2.000000
v -3.000000 1.000000 -0.750000
v -1.125000 0.800274 2.000000
v 3.000000 1.000000 0.750000
v 1.125000 1.000000 -2.000000
v -0.000000 0.825223 -1.250000
v -0.000000 1.000000 0.750000
v -1.875000 1.000000 0.000000
v 1.125000 1.000000 -0.000000
v -3.000000 1.000000 0.250000
v 0.375000 0.953355 2.014318
v 3.000000 1.000000 -0.250000
v -0.375000 1.000000 -2.000000
v -3.000000 1.000000 -1.750000
v -2.625000 0.944138 2.000000
v 3.000000 0.894338 1.812314
v 2.625000 1.000000 -2.000000
v -0.000000 0.982590 -0.250000
v -0.001866 1.014333 1.802166
v -0.375000 1.000000 0.000000
v 2.625000 1.000000 -0.000000
v 1.500000 1.000000 0.750000
v 1.500000 1.000000 1.750000
v 1.125000 1.000000 1.000000
v 2.625000 1.000000 1.000000
v -1.500000 1.000000 0.750000
v -1.500000 1.000000 1.750000
v -1.875000 1.000000 1.000000
v -0.375000 1.000000 1.000000
v -1.500000 1.000000 -1.250000
v -1.500000 1.000000 -0.250000
v -1.875000 1.000000 -1.000000
v -0.375000 0.785476 -1.000000
v 1.500000 1.000000 -1.250000
v 1.500000 1.000000 -0.250000
v 1.125000 1.000000 -1.000000
v 2.625000 1.000000 -1.000000
v 2.250000 1.000000 -0.750000
v 2.250000 1.000000 -0.250000
v 1.875000 1.000000 -0.500000
v 2.625000 1.000000 -0.500000
v 0.750000 0.990012 -0.750000
v 0.750000 1.000000 -0.250000
v 0.375000 0.950245 -0.500000
v 1.125000 1.000000 -0.500000
v 0.750000 1.000000 -1.750000
v 0.750000 0.990012 -1.250000
v 0.375000 0.950245 -1.500000
v 1.125000 1.000000 -1.500000
v -0.750000 0.891375 -0.750000
v -0.750000 0.996323 -0.250000
v -1.125000 0.999954 -0.500000
v -0.375000 0.908774 -0.500000
v -2.250000 1.000000 -0.750000
v -2.250000 1.000000 -0.250000
v -2.625000 1.000000 -0.500000
v -1.875000 1.000000 -0.500000
v -2.250000 1.000000 -1.750000
v -2.250000 1.000000 -1.250000
v -2.625000 1.000000 -1.500000
v -1.875000 1.000000 -1.500000
v -0.750000 1.000000 1.250000
v -0.751866 1.014333 1.818166
v -1.125000 1.000000 1.500000
v -0.380530 1.059014 1.696855
v -2.250000 1.000000 1.250000
v -2.250000 1.000000 1.750000
v -2.625000 1.000000 1.500000
v -1.875000 1.000000 1.500000
v -2.250000 1.000000 0.250000
v -2.250000 1.000000 0.750000
v -2.625000 1.000000 0.500000
v -1.875000 1.000000 0.500000
v 2.250000 1.000000 1.250000
v 2.250000 1.000000 1.750000
v 1.875000 1.000000 1.500000
v 2.625000 1.000000 1.500000
v 0.750000 1.047093 1.250000
v 0.750000 0.902308 2.133718
v 0.375000 1.016183 1.509559
v 1.125000 1.016183 1.509559
v 0.750000 1.000000 0.250000
v 0.750000 1.000000 0.750000
v 0.375000 1.000000 0.500000
v 1.125000 1.000000 0.500000
v 2.250000 1.000000 0.250000
v 2.250000 1.000000 0.750000
v 1.875000 1.000000 0.500000
v 2.625000 1.000000 0.500000
v -0.750000 1.000000 0.250000
v -0.750000 1.000000 0.750000
v -1.125000 1.000000 0.500000
v -0.375000 1.000000 0.500000
v -0.750000 0.996323 -1.750000
v -0.750000 0.891375 -1.250000
v -1.125000 0.999954 -1.500000
v -0.375000 0.908774 -1.500000
v 2.250000 1.000000 -1.750000
v 2.250000 1.000000 -1.250000
v 1.875000 1.000000 -1.500000
v 2.625000 1.000000 -1.500000
v 2.625000 1.000000 -1.250000
v 1.875000 1.000000 -1.250000
v 1.875000 1.000000 -1.750000
v -0.375000 0.825223 -1.250000
v -1.125000 0.990012 -1.250000
v -1.125000 1.000000 -1.750000
v -0.375000 1.000000 0.750000
v -1.125000 1.000000 0.750000
v -1.125000 1.000000 0.250000
v 2.625000 1.000000 0.750000
v 1.875000 1.000000 0.750000
v 1.875000 1.000000 0.250000
v 1.125000 1.000000 0.750000
v 0.375000 1.000000 0.750000
v 0.375000 1.000000 0.250000
v 1.125000 0.993014 1.809162
v 0.375000 0.993014 1.809162
v 0.375000 1.003704 1.250000
v 2.625000 0.991688 1.754902
v 1.875000 1.000000 1.750000
v 1.875000 1.000000 1.250000
v -1.875000 1.000000 0.750000
v -2.625000 1.000000 0.750000
v -2.625000 1.000000 0.250000
v -1.875000 0.983996 1.750000
v -2.625000 0.987212 1.750000
v -2.625000 1.000000 1.250000
v -0.386293 1.049030 2.095726
v -1.125000 0.989791 1.750000
v -1.125000 1.000000 1.250000
v -1.875000 1.000000 -1.250000
v -2.625000 1.000000 -1.250000
v -2.625000 1.000000 -1.750000
v -1.875000 1.000000 -0.250000
v -2.625000 1.000000 -0.250000
v -2.625000 1.000000 -0.750000
v -0.375000 0.982590 -0.250000
v -1.125000 1.000000 -0.250000
v -1.125000 0.990012 -0.750000
v 1.125000 1.000000 -1.250000
v 0.375000 0.891375 -1.250000
v 0.375000 0.996323 -1.750000
v 1.125000 1.000000 -0.250000
v 0.375000 0.996323 -0.250000
v 0.375000 0.891375 -0.750000
v 2.625000 1.000000 -0.250000
v 1.875000 1.000000 -0.250000
v 1.875000 1.000000 -0.750000
v 2.625000 1.000000 -0.750000
v 1.125000 1.000000 -0.750000
v 1.125000 1.000000 -1.750000
v -0.375000 0.825223 -0.750000
v -1.875000 1.000000 -0.750000
v -1.875000 1.000000 -1.750000
v -0.375008 1.000087 1.256624
v -1.875000 1.000000 1.250000
v -1.875000 1.000000 0.250000
v 2.625000 1.000000 1.250000
v 1.125000 1.003704 1.250000
v 1.125000 1.000000 0.250000
v 2.625000 1.000000 0.250000
v -0.375000 1.000000 0.250000
v -0.375000 0.982590 -1.750000
v 2.625000 1.000000 -1.750000
v -3.000000 -0.049337 1.551057
v -3.000000 0.950663 1.551057
v -3.000000 -0.046989 -0.346931
v -3.000000 0.953011 -0.346931
v 3.000000 -0.049337 1.551057
v 3.000000 0.950663 1.551057
v 3.000000 -0.046988 -0.346931
v 3.000000 0.953011 -0.346931
vt 0.699830 0.721580
vt 0.700098 0.728958
vt 0.692643 0.730651
vt 0.693061 0.722604
vt 0.699976 0.715649
vt 0.693846 0.715415
vt 0.686515 0.733079
vt 0.685929 0.724234
vt 0.686273 0.714401
vt 0.680332 0.738327
vt 0.676366 0.725027
vt 0.676650 0.710777
vt 0.673628 0.759967
vt 0.645835 0.729973
vt 0.662102 0.692639
vt 0.757687 0.726666
vt 0.735629 0.759967
vt 0.728950 0.738336
vt 0.735123 0.720641
vt 0.740107 0.690818
vt 0.727503 0.704796
vt 0.722152 0.717131
vt 0.714290 0.707578
vt 0.721118 0.730884
vt 0.706001 0.721071
vt 0.705176 0.714691
vt 0.710428 0.728096
vt 0.700423 0.688566
vt 0.704134 0.757989
vt 0.706045 0.650728
vt 0.705303 0.641428
vt 0.714126 0.640538
vt 0.713004 0.648865
vt 0.706097 0.655797
vt 0.712287 0.655875
vt 0.719481 0.638202
vt 0.719391 0.646202
vt 0.720228 0.656951
vt 0.723704 0.633551
vt 0.730912 0.645176
vt 0.730851 0.660924
vt 0.735184 0.604502
vt 0.763450 0.647365
vt 0.748060 0.679308
vt 0.645835 0.649685
vt 0.673532 0.604502
vt 0.686933 0.635647
vt 0.680462 0.646123
vt 0.663725 0.681455
vt 0.680399 0.661711
vt 0.692250 0.647087
vt 0.691565 0.657236
vt 0.691590 0.641811
vt 0.699014 0.649438
vt 0.699892 0.656015
vt 0.696864 0.643303
vt 0.706363 0.687858
vt 0.703433 0.607237
vt 0.824430 0.442449
vt 0.835131 0.432541
vt 0.833436 0.442076
vt 0.827671 0.449854
vt 0.795855 0.430378
vt 0.817255 0.424365
vt 0.833245 0.424816
vt 0.814746 0.436881
vt 0.767588 0.445509
vt 0.782825 0.439834
vt 0.794545 0.455729
vt 0.777644 0.466983
vt 0.789046 0.477622
vt 0.808429 0.459251
vt 0.817065 0.460477
vt 0.802110 0.474341
vt 0.765443 0.471312
vt 0.776029 0.489115
vt 0.790505 0.489115
vt 0.756337 0.428948
vt 0.759144 0.418576
vt 0.752100 0.437741
vt 0.758497 0.448985
vt 0.773549 0.411610
vt 0.801093 0.418035
vt 0.714984 0.872696
vt 0.716376 0.864734
vt 0.723822 0.870923
vt 0.727730 0.879784
vt 0.690087 0.891199
vt 0.706897 0.880402
vt 0.727730 0.887736
vt 0.712303 0.891966
vt 0.659039 0.883204
vt 0.663714 0.859958
vt 0.682802 0.866883
vt 0.675187 0.885104
vt 0.672268 0.846918
vt 0.685738 0.847008
vt 0.703553 0.856929
vt 0.695455 0.860168
vt 0.650835 0.858646
vt 0.656897 0.838840
vt 0.670960 0.835407
vt 0.652036 0.901961
vt 0.657223 0.911372
vt 0.645835 0.894423
vt 0.649382 0.881983
vt 0.672868 0.914722
vt 0.698103 0.901948
vt 0.833123 0.977124
vt 0.823438 0.977124
vt 0.823438 0.969946
vt 0.833123 0.969946
vt 0.737847 0.977124
vt 0.727102 0.977124
vt 0.727102 0.969946
vt 0.737847 0.969946
vt 0.704405 0.977124
vt 0.681022 0.977124
vt 0.681022 0.969946
vt 0.704405 0.969946
vt 0.660310 0.977124
vt 0.660310 0.969946
vt 0.878208 0.977124
vt 0.857816 0.977124
vt 0.857816 0.969946
vt 0.878208 0.969946
vt 0.842804 0.977124
vt 0.842804 0.969946
vt 0.815486 0.977124
vt 0.815486 0.969946
vt 0.717341 0.977124
vt 0.717341 0.969946
vt 0.799489 0.977124
vt 0.799489 0.969946
vt 0.645834 0.977124
vt 0.645834 0.969946
vt 0.782132 0.977124
vt 0.753848 0.977124
vt 0.753848 0.969946
vt 0.782132 0.969946
vt 0.896995 0.977124
vt 0.896995 0.969946
vt 0.791400 0.730611
vt 0.799813 0.730869
vt 0.791602 0.736240
vt 0.784905 0.736173
vt 0.797764 0.704761
vt 0.805362 0.713937
vt 0.805914 0.724120
vt 0.796990 0.717435
vt 0.778571 0.696203
vt 0.787436 0.701222
vt 0.776375 0.716305
vt 0.768313 0.705474
vt 0.763902 0.715862
vt 0.774912 0.728607
vt 0.775418 0.733480
vt 0.765954 0.725802
vt 0.764866 0.698543
vt 0.758395 0.706331
vt 0.759422 0.716816
vt 0.784811 0.688960
vt 0.791553 0.688566
vt 0.778439 0.688566
vt 0.774053 0.692873
vt 0.800342 0.693282
vt 0.805326 0.705519
vt 0.796380 0.610135
vt 0.789712 0.604781
vt 0.796404 0.604502
vt 0.804780 0.609611
vt 0.803557 0.635771
vt 0.802383 0.623128
vt 0.811092 0.616165
vt 0.810862 0.626359
vt 0.784644 0.644931
vt 0.774099 0.635989
vt 0.781814 0.624909
vt 0.793347 0.639634
vt 0.769361 0.625746
vt 0.771098 0.615746
vt 0.780314 0.607772
vt 0.779964 0.612660
vt 0.770872 0.643026
vt 0.764158 0.635446
vt 0.764854 0.624934
vt 0.791110 0.651973
vt 0.797862 0.652154
vt 0.784754 0.652569
vt 0.780234 0.648403
vt 0.806497 0.647163
vt 0.811092 0.634774
vt 0.757288 0.985010
vt 0.747477 0.985010
vt 0.747477 0.977832
vt 0.757288 0.977832
vt 0.696576 0.985010
vt 0.689822 0.985010
vt 0.689822 0.977832
vt 0.696576 0.977832
vt 0.677292 0.985010
vt 0.666495 0.985010
vt 0.666495 0.977832
vt 0.677292 0.977832
vt 0.656370 0.985010
vt 0.656370 0.977832
vt 0.786035 0.985010
vt 0.773848 0.985010
vt 0.773848 0.977832
vt 0.786035 0.977832
vt 0.763986 0.985010
vt 0.763986 0.977832
vt 0.738378 0.985010
vt 0.738378 0.977832
vt 0.683438 0.985010
vt 0.683438 0.977832
vt 0.728181 0.985010
vt 0.728181 0.977832
vt 0.645835 0.985010
vt 0.645835 0.977832
vt 0.719763 0.985010
vt 0.706550 0.985010
vt 0.706550 0.977832
vt 0.719763 0.977832
vt 0.797144 0.985010
vt 0.797144 0.977832
vt 0.797586 0.781601
vt 0.806265 0.773602
vt 0.807153 0.787221
vt 0.801217 0.793642
vt 0.773727 0.770190
vt 0.787858 0.760701
vt 0.801051 0.760675
vt 0.785253 0.770494
vt 0.748127 0.786726
vt 0.762326 0.778967
vt 0.768189 0.787487
vt 0.748347 0.795875
vt 0.759752 0.803906
vt 0.783958 0.797453
vt 0.791471 0.802328
vt 0.775441 0.808135
vt 0.736165 0.801061
vt 0.743258 0.813248
vt 0.758120 0.814847
vt 0.744501 0.780900
vt 0.748265 0.772911
vt 0.736165 0.787078
vt 0.737463 0.791565
vt 0.759860 0.763846
vt 0.778674 0.760865
vt 0.820393 0.529328
vt 0.819453 0.516923
vt 0.827352 0.520709
vt 0.831458 0.533595
vt 0.802053 0.548605
vt 0.812817 0.544076
vt 0.831226 0.547505
vt 0.818802 0.552353
vt 0.772095 0.542178
vt 0.769075 0.533430
vt 0.790663 0.534263
vt 0.788189 0.544423
vt 0.776817 0.521959
vt 0.790081 0.512625
vt 0.807187 0.512390
vt 0.801883 0.519518
vt 0.755865 0.532855
vt 0.758102 0.518961
vt 0.771476 0.512390
vt 0.770733 0.549042
vt 0.777071 0.555295
vt 0.760801 0.546144
vt 0.760456 0.541409
vt 0.791219 0.559710
vt 0.810072 0.555603
vt 0.788487 0.941879
vt 0.774981 0.941879
vt 0.775405 0.934720
vt 0.788798 0.934742
vt 0.707255 0.928621
vt 0.698895 0.925968
vt 0.698482 0.919209
vt 0.706927 0.921838
vt 0.684087 0.924587
vt 0.674835 0.922546
vt 0.674229 0.915784
vt 0.683621 0.917794
vt 0.660907 0.922174
vt 0.660315 0.915431
vt 0.824555 0.928027
vt 0.808853 0.934696
vt 0.809246 0.927653
vt 0.825066 0.921097
vt 0.796892 0.939748
vt 0.797234 0.932654
vt 0.761208 0.940923
vt 0.761649 0.933755
vt 0.688632 0.925441
vt 0.688244 0.918658
vt 0.748201 0.939539
vt 0.748489 0.932406
vt 0.646412 0.925138
vt 0.645835 0.918289
vt 0.739267 0.937907
vt 0.721017 0.933345
vt 0.720852 0.926433
vt 0.739408 0.930827
vt 0.843087 0.926818
vt 0.843640 0.919968
vt 0.726147 0.794001
vt 0.735457 0.779224
vt 0.735457 0.801365
vt 0.728590 0.813365
vt 0.705029 0.772624
vt 0.723131 0.760675
vt 0.733390 0.761297
vt 0.715163 0.774029
vt 0.662733 0.784620
vt 0.686498 0.783202
vt 0.687204 0.802240
vt 0.660870 0.803428
vt 0.674353 0.825136
vt 0.706299 0.821486
vt 0.714827 0.827027
vt 0.692917 0.834346
vt 0.645835 0.801139
vt 0.653107 0.823141
vt 0.671697 0.834699
vt 0.663427 0.774410
vt 0.674625 0.769266
vt 0.650351 0.776828
vt 0.649328 0.784053
vt 0.695032 0.763262
vt 0.715038 0.760808
vt 0.807499 0.864733
vt 0.804377 0.845467
vt 0.814353 0.855041
vt 0.820601 0.876281
vt 0.793273 0.891201
vt 0.802599 0.886993
vt 0.823679 0.894063
vt 0.814012 0.897555
vt 0.749311 0.891630
vt 0.742216 0.874112
vt 0.767815 0.867820
vt 0.772511 0.886283
vt 0.749024 0.849482
vt 0.764233 0.835407
vt 0.787319 0.836244
vt 0.780701 0.843967
vt 0.728438 0.880552
vt 0.729204 0.857392
vt 0.743776 0.841057
vt 0.752859 0.901229
vt 0.765053 0.903004
vt 0.739632 0.902600
vt 0.736612 0.895958
vt 0.786325 0.903004
vt 0.806210 0.899711
vt 0.838091 0.949765
vt 0.815580 0.949765
vt 0.815580 0.942587
vt 0.838091 0.942587
vt 0.741257 0.959511
vt 0.729149 0.956925
vt 0.729149 0.949747
vt 0.741257 0.952333
vt 0.708949 0.951995
vt 0.691469 0.949765
vt 0.691469 0.942587
vt 0.708949 0.944817
vt 0.668022 0.949765
vt 0.668022 0.942587
vt 0.895406 0.949765
vt 0.871986 0.949765
vt 0.871986 0.942587
vt 0.895406 0.942587
vt 0.852200 0.949765
vt 0.852200 0.942587
vt 0.797405 0.950517
vt 0.797405 0.943339
vt 0.716042 0.953999
vt 0.716042 0.946821
vt 0.787845 0.954407
vt 0.787845 0.947229
vt 0.645835 0.949765
vt 0.645835 0.942587
vt 0.781280 0.958194
vt 0.762013 0.961351
vt 0.762013 0.954173
vt 0.781280 0.951016
vt 0.916928 0.949765
vt 0.916928 0.942587
vt 0.747078 0.822126
vt 0.747222 0.820563
vt 0.748486 0.820534
vt 0.748481 0.822202
vt 0.746934 0.823689
vt 0.748186 0.823870
vt 0.749932 0.820235
vt 0.750153 0.822276
vt 0.749604 0.824334
vt 0.751815 0.819363
vt 0.752640 0.822323
vt 0.751489 0.825413
vt 0.754468 0.816790
vt 0.757991 0.822141
vt 0.754655 0.828697
vt 0.736165 0.822110
vt 0.739501 0.815555
vt 0.742667 0.818838
vt 0.741516 0.821929
vt 0.739688 0.827462
vt 0.742341 0.824889
vt 0.744003 0.821976
vt 0.744224 0.824017
vt 0.744552 0.819918
vt 0.745675 0.822050
vt 0.745670 0.823718
vt 0.745969 0.820382
vt 0.746661 0.828696
vt 0.747495 0.815556
vt 0.723778 0.524706
vt 0.711120 0.512390
vt 0.733117 0.517171
vt 0.743432 0.526798
vt 0.669536 0.548926
vt 0.673440 0.526288
vt 0.690044 0.512390
vt 0.692476 0.533710
vt 0.684747 0.587284
vt 0.679549 0.568194
vt 0.722642 0.564530
vt 0.716620 0.589960
vt 0.741306 0.582867
vt 0.746016 0.550773
vt 0.753587 0.543779
vt 0.755157 0.567146
vt 0.710101 0.603794
vt 0.733535 0.602984
vt 0.749916 0.588020
vt 0.662609 0.587722
vt 0.651433 0.578625
vt 0.671854 0.597305
vt 0.686071 0.598008
vt 0.645835 0.560034
vt 0.659060 0.537178
vt 0.735598 0.483798
vt 0.751392 0.471916
vt 0.747480 0.485472
vt 0.731055 0.500865
vt 0.676615 0.490851
vt 0.704112 0.492137
vt 0.712967 0.511682
vt 0.691584 0.508277
vt 0.669982 0.450124
vt 0.695963 0.431469
vt 0.714183 0.450203
vt 0.675319 0.469176
vt 0.720789 0.424886
vt 0.740746 0.431269
vt 0.751392 0.452130
vt 0.741304 0.450013
vt 0.683268 0.422941
vt 0.703795 0.411610
vt 0.725535 0.416044
vt 0.650757 0.461111
vt 0.645835 0.474654
vt 0.653773 0.448141
vt 0.665614 0.440241
vt 0.650572 0.493483
vt 0.673654 0.506311
vt 0.887246 0.969237
vt 0.864735 0.969237
vt 0.864735 0.962060
vt 0.887246 0.962059
vt 0.758146 0.969237
vt 0.743737 0.969237
vt 0.743737 0.962060
vt 0.758146 0.962060
vt 0.716186 0.969237
vt 0.691468 0.969237
vt 0.691468 0.962060
vt 0.716186 0.962060
vt 0.668021 0.969237
vt 0.668021 0.962060
vt 0.944562 0.969237
vt 0.921142 0.969237
vt 0.921142 0.962059
vt 0.944562 0.962059
vt 0.901356 0.969237
vt 0.901356 0.962059
vt 0.843659 0.969237
vt 0.843659 0.962060
vt 0.730420 0.969237
vt 0.730420 0.962060
vt 0.822007 0.969237
vt 0.822007 0.962060
vt 0.645834 0.969238
vt 0.645834 0.962060
vt 0.803969 0.969237
vt 0.777562 0.969237
vt 0.777562 0.962060
vt 0.803969 0.962060
vt 0.966084 0.969237
vt 0.966084 0.962059
vt 0.573147 0.786365
vt 0.610355 0.786383
vt 0.610344 0.811190
vt 0.573134 0.811172
vt 0.275395 0.786209
vt 0.312566 0.786331
vt 0.312542 0.811195
vt 0.275209 0.811084
vt 0.276849 0.586556
vt 0.313918 0.587030
vt 0.313639 0.611698
vt 0.276561 0.611313
vt 0.573203 0.588003
vt 0.610393 0.587974
vt 0.610405 0.612774
vt 0.573216 0.612787
vt 0.424834 0.587942
vt 0.461855 0.588026
vt 0.461812 0.612738
vt 0.424738 0.612630
vt 0.424896 0.489724
vt 0.461682 0.489451
vt 0.461806 0.514059
vt 0.424965 0.514169
vt 0.573003 0.488823
vt 0.610231 0.488734
vt 0.610289 0.513551
vt 0.573076 0.513636
vt 0.126715 0.585205
vt 0.164460 0.585308
vt 0.164338 0.610417
vt 0.126721 0.610323
vt 0.126403 0.483005
vt 0.165594 0.483422
vt 0.165146 0.509223
vt 0.126540 0.508982
vt 0.279072 0.487319
vt 0.315536 0.488943
vt 0.315045 0.513290
vt 0.278269 0.512456
vt 0.126207 0.784903
vt 0.163499 0.785137
vt 0.163313 0.809996
vt 0.126062 0.809742
vt 0.126622 0.685319
vt 0.164057 0.685446
vt 0.163946 0.710400
vt 0.126548 0.710248
vt 0.276611 0.687077
vt 0.312319 0.687392
vt 0.311877 0.711381
vt 0.276807 0.711003
vt 0.424253 0.786262
vt 0.461493 0.786289
vt 0.461477 0.811109
vt 0.424245 0.811089
vt 0.424431 0.686934
vt 0.461637 0.687032
vt 0.461587 0.711835
vt 0.424358 0.711757
vt 0.573203 0.687156
vt 0.610399 0.687170
vt 0.610390 0.711971
vt 0.573189 0.711954
vt 0.498826 0.687095
vt 0.536012 0.687134
vt 0.535992 0.711929
vt 0.498793 0.711891
vt 0.498892 0.637540
vt 0.536045 0.637566
vt 0.536031 0.662346
vt 0.498860 0.662311
vt 0.573218 0.637573
vt 0.610408 0.637573
vt 0.610406 0.662371
vt 0.573213 0.662363
vt 0.348997 0.687069
vt 0.387163 0.686770
vt 0.387070 0.711649
vt 0.348432 0.711511
vt 0.350408 0.636816
vt 0.387506 0.637155
vt 0.387317 0.661938
vt 0.349906 0.661910
vt 0.424632 0.637362
vt 0.461756 0.637479
vt 0.461695 0.662244
vt 0.424526 0.662128
vt 0.349756 0.786306
vt 0.386995 0.786257
vt 0.387011 0.811088
vt 0.349786 0.811135
vt 0.348794 0.735952
vt 0.386995 0.736539
vt 0.386979 0.761410
vt 0.349481 0.761138
vt 0.424302 0.736589
vt 0.461545 0.736648
vt 0.461515 0.761467
vt 0.424269 0.761427
vt 0.201543 0.685606
vt 0.239873 0.686320
vt 0.240177 0.710824
vt 0.201401 0.710598
vt 0.201755 0.635648
vt 0.239150 0.635855
vt 0.239280 0.661077
vt 0.201648 0.660624
vt 0.276347 0.636097
vt 0.313369 0.636393
vt 0.312929 0.661937
vt 0.276353 0.661673
vt 0.051922 0.685237
vt 0.089238 0.685252
vt 0.089198 0.710146
vt 0.051905 0.710087
vt 0.051839 0.635500
vt 0.089223 0.635386
vt 0.089248 0.660334
vt 0.051904 0.660376
vt 0.126708 0.635368
vt 0.164240 0.635463
vt 0.164151 0.660470
vt 0.126675 0.660362
vt 0.051712 0.784578
vt 0.088946 0.784720
vt 0.088833 0.809544
vt 0.051621 0.809389
vt 0.051860 0.734926
vt 0.089133 0.735022
vt 0.089048 0.759880
vt 0.051794 0.759757
vt 0.126453 0.735155
vt 0.163821 0.735336
vt 0.163670 0.760253
vt 0.126339 0.760040
vt 0.204279 0.484574
vt 0.242086 0.486318
vt 0.241171 0.511259
vt 0.203432 0.510055
vt 0.206889 0.432336
vt 0.246215 0.430380
vt 0.243577 0.458861
vt 0.205420 0.458760
vt 0.281762 0.411801
vt 0.316272 0.435684
vt 0.316075 0.463211
vt 0.280337 0.445266
vt 0.049226 0.485370
vt 0.087427 0.483916
vt 0.088089 0.509535
vt 0.050113 0.510563
vt 0.046514 0.434654
vt 0.084864 0.432137
vt 0.086387 0.458101
vt 0.048027 0.460084
vt 0.125885 0.428671
vt 0.167187 0.430923
vt 0.166246 0.457298
vt 0.126231 0.456390
vt 0.051510 0.585672
vt 0.089028 0.585343
vt 0.089153 0.610395
vt 0.051714 0.610601
vt 0.050751 0.535669
vt 0.088531 0.534950
vt 0.088830 0.560206
vt 0.051201 0.560700
vt 0.126632 0.534597
vt 0.164837 0.534760
vt 0.164619 0.560103
vt 0.126687 0.559979
vt 0.498671 0.489199
vt 0.535791 0.488983
vt 0.535899 0.513756
vt 0.498797 0.513906
vt 0.498242 0.439717
vt 0.535448 0.439353
vt 0.535641 0.464188
vt 0.498487 0.464475
vt 0.572815 0.438538
vt 0.611156 0.431250
vt 0.610182 0.463892
vt 0.572920 0.463968
vt 0.351954 0.489525
vt 0.388367 0.489476
vt 0.388287 0.514140
vt 0.351670 0.513850
vt 0.352640 0.435231
vt 0.388212 0.406215
vt 0.388398 0.453681
vt 0.352269 0.464390
vt 0.424243 0.435006
vt 0.461152 0.440166
vt 0.461471 0.464834
vt 0.424692 0.464392
vt 0.350894 0.587448
vt 0.387853 0.587756
vt 0.387684 0.612426
vt 0.350653 0.612110
vt 0.351396 0.538293
vt 0.388155 0.538597
vt 0.388012 0.563143
vt 0.351139 0.562837
vt 0.424961 0.538705
vt 0.461865 0.538687
vt 0.461877 0.563342
vt 0.424912 0.563298
vt 0.498926 0.588045
vt 0.536045 0.588031
vt 0.536051 0.612794
vt 0.498916 0.612784
vt 0.498875 0.538610
vt 0.535973 0.538516
vt 0.536020 0.563272
vt 0.498915 0.563321
vt 0.573135 0.538432
vt 0.610336 0.538364
vt 0.610371 0.563172
vt 0.573177 0.563219
vt 0.202125 0.585623
vt 0.239602 0.586069
vt 0.239335 0.610968
vt 0.201908 0.610653
vt 0.202843 0.535355
vt 0.240476 0.536213
vt 0.239972 0.561150
vt 0.202425 0.560532
vt 0.277683 0.537090
vt 0.314611 0.537791
vt 0.314238 0.562383
vt 0.277217 0.561805
vt 0.200827 0.785440
vt 0.238143 0.785826
vt 0.237893 0.810700
vt 0.200595 0.810319
vt 0.201257 0.735581
vt 0.239577 0.735341
vt 0.238650 0.760601
vt 0.201060 0.760529
vt 0.276361 0.735028
vt 0.312104 0.735296
vt 0.312435 0.760712
vt 0.275777 0.760552
vt 0.498719 0.786317
vt 0.535935 0.786343
vt 0.535921 0.811153
vt 0.498703 0.811132
vt 0.498764 0.736695
vt 0.535971 0.736730
vt 0.535952 0.761535
vt 0.498739 0.761505
vt 0.573175 0.736755
vt 0.610379 0.736773
vt 0.610367 0.761578
vt 0.573160 0.761559
vt 0.388131 0.390977
vt 0.423192 0.414609
vt 0.460717 0.415451
vt 0.316211 0.415895
vt 0.353380 0.414973
vt 0.535186 0.414545
vt 0.572543 0.411835
vt 0.612555 0.399195
vt 0.497951 0.414925
vt 0.013388 0.536558
vt 0.013885 0.561326
vt 0.012689 0.511792
vt 0.014227 0.586098
vt 0.014453 0.610877
vt 0.082497 0.407616
vt 0.125269 0.387086
vt 0.168593 0.406360
vt 0.005863 0.433186
vt 0.010464 0.462249
vt 0.000213 0.404702
vt 0.045238 0.409231
vt 0.011732 0.487023
vt 0.249066 0.411654
vt 0.282865 0.400171
vt 0.209818 0.400032
vt 0.014636 0.734852
vt 0.014575 0.759655
vt 0.014676 0.710049
vt 0.014500 0.784458
vt 0.014417 0.809261
vt 0.014591 0.635662
vt 0.014664 0.660453
vt 0.014688 0.685250
vt 0.000213 0.287397
vt 0.000213 0.099230
vt 0.099353 0.099353
vt 0.099353 0.287520
vt 0.099353 0.000213
vt 0.694194 0.000213
vt 0.694194 0.099353
vt 0.793334 0.099231
vt 0.793334 0.287397
vt 0.694194 0.287520
vt 0.694194 0.386660
vt 0.099353 0.386660
vt 0.595054 0.811620
vt 0.595054 0.999787
vt 0.000213 0.999787
vt 0.000213 0.811620
vn -0.979300 0.170500 0.109100
vn -0.681800 0.715400 0.152500
vn -0.517600 0.704800 -0.485000
vn -0.713000 0.076000 -0.697000
vn -0.792400 -0.607600 0.053400
vn -0.549500 -0.650900 -0.523800
vn -0.026000 0.730400 -0.682500
vn 0.001300 0.037600 -0.999300
vn -0.000900 -0.674700 -0.738100
vn 0.658200 0.666800 -0.349500
vn 0.819900 -0.037900 -0.571200
vn 0.640200 -0.632500 -0.436000
vn 0.768000 0.625400 0.137800
vn 0.999500 -0.009900 -0.029500
vn 0.792700 -0.609100 -0.025300
vn 0.426100 0.419600 0.801400
vn 0.782000 -0.120800 0.611400
vn 0.517600 -0.569600 0.638500
vn 0.017100 -0.097200 0.995100
vn 0.050400 -0.546500 0.835900
vn -0.173300 0.134600 0.975600
vn -0.471400 0.115400 0.874300
vn -0.387700 -0.558400 0.733400
vn -0.287700 0.386500 0.876200
vn -0.020500 -0.996500 0.080400
vn -0.174100 0.924000 0.340500
vn -0.908300 0.415000 0.052100
vn -0.667700 0.740000 0.080900
vn -0.768800 0.635500 0.070700
vn -0.828400 0.331200 -0.451600
vn -0.814900 -0.579600 -0.004000
vn -0.589600 -0.625500 -0.510900
vn -0.280500 0.790100 -0.545100
vn -0.112900 0.145100 -0.982900
vn -0.006500 -0.657700 -0.753200
vn 0.515800 0.791200 -0.328400
vn 0.772100 -0.022100 -0.635200
vn 0.574600 -0.639500 -0.510700
vn 0.742400 0.659700 0.116000
vn 0.998200 -0.059000 -0.000900
vn 0.748800 -0.662700 -0.005800
vn 0.518300 0.685400 0.511400
vn 0.789700 -0.100100 0.605200
vn 0.578300 -0.673400 0.460500
vn -0.077400 0.052700 0.995600
vn -0.017200 -0.727900 0.685500
vn -0.206300 0.704100 0.679500
vn -0.788500 0.393100 0.473000
vn -0.599200 -0.652200 0.464200
vn -0.679300 0.733600 0.018000
vn -0.025600 -0.999700 0.000000
vn -0.474100 0.862100 0.178600
vn 0.000000 -1.000000 0.000000
vn 0.356100 -0.663500 -0.658000
vn 0.605000 -0.659000 -0.446800
vn 0.683400 -0.691000 -0.235400
vn -0.495300 -0.747900 -0.441900
vn -0.286100 -0.592700 -0.752800
vn 0.691200 -0.702800 -0.168500
vn 0.658000 -0.725200 -0.202400
vn -0.079400 -0.681700 0.727300
vn 0.397400 -0.610900 0.684700
vn 0.781800 -0.620700 0.059000
vn -0.530000 -0.728400 0.434200
vn -0.733500 -0.624500 0.268300
vn -0.373200 -0.616000 0.693700
vn -0.080400 -0.732100 0.676400
vn -0.703100 -0.639200 -0.311600
vn -0.488200 -0.691200 -0.532700
vn 0.000000 1.000000 0.000000
vn 0.683400 0.691000 -0.235400
vn 0.605000 0.659000 -0.446800
vn 0.356100 0.663500 -0.658000
vn -0.286100 0.592700 -0.752800
vn -0.495300 0.747900 -0.441900
vn 0.658000 0.725200 -0.202400
vn 0.691200 0.702800 -0.168500
vn -0.079400 0.681700 0.727300
vn 0.397400 0.610900 0.684700
vn 0.781800 0.620700 0.059000
vn -0.530000 0.728400 0.434200
vn -0.733500 0.624500 0.268300
vn -0.373200 0.616000 0.693700
vn -0.080400 0.732100 0.676400
vn -0.703100 0.639200 -0.311600
vn -0.488200 0.691200 -0.532700
vn 0.088600 -0.679400 -0.728400
vn 0.394500 -0.647200 -0.652200
vn 0.606800 -0.678400 -0.414100
vn -0.489000 -0.712700 -0.502900
vn -0.303700 -0.629900 -0.714800
vn 0.721500 -0.664500 -0.194300
vn 0.732400 -0.679000 0.051200
vn -0.083700 -0.672500 0.735300
vn 0.333900 -0.629800 0.701300
vn 0.677100 -0.652500 0.340200
vn -0.511600 -0.720900 0.467500
vn -0.657000 -0.650700 0.380700
vn -0.354100 -0.626000 0.694800
vn -0.111100 -0.733100 0.671000
vn -0.766300 -0.638200 -0.073900
vn -0.600800 -0.666700 -0.440900
vn 0.606800 0.678400 -0.414100
vn 0.394500 0.647200 -0.652200
vn 0.088600 0.679400 -0.728400
vn -0.303700 0.629900 -0.714800
vn -0.489000 0.712700 -0.502900
vn 0.732400 0.679000 0.051200
vn 0.721500 0.664500 -0.194300
vn -0.083700 0.672500 0.735300
vn 0.333900 0.629800 0.701300
vn 0.677100 0.652500 0.340200
vn -0.511600 0.720900 0.467500
vn -0.657000 0.650700 0.380700
vn -0.354100 0.626000 0.694800
vn -0.111100 0.733100 0.671000
vn -0.766300 0.638200 -0.073900
vn -0.600800 0.666700 -0.440900
vn -0.094200 -0.991500 0.089500
vn 0.110500 -0.586000 -0.802800
vn 0.489800 -0.636500 -0.595800
vn 0.625000 -0.770600 -0.125000
vn 0.165700 -0.982400 0.086500
vn -0.689300 -0.643400 -0.333100
vn -0.469500 -0.433600 -0.769100
vn 0.000700 -0.998300 0.057800
vn 0.168600 -0.971400 -0.166800
vn 0.195300 -0.980300 0.029000
vn 0.051100 -0.997200 0.054000
vn 0.061400 -0.978900 -0.195000
vn -0.129100 -0.983600 -0.125600
vn -0.081900 -0.984800 0.153000
vn 0.688400 -0.725000 0.020900
vn 0.651300 -0.753400 0.089900
vn -0.185800 -0.803400 0.565700
vn 0.357200 -0.800600 0.481000
vn 0.582300 -0.809800 0.071400
vn -0.482100 -0.848100 0.219500
vn -0.586700 -0.750800 0.303400
vn -0.508400 -0.766400 0.392600
vn -0.067700 -0.914800 0.398200
vn -0.711100 -0.702500 -0.028000
vn -0.673700 -0.686800 -0.272700
vn 0.093700 0.992400 -0.079100
vn 0.727300 0.607700 -0.319000
vn 0.620700 0.611300 -0.490900
vn 0.243200 0.743900 -0.622500
vn -0.159100 0.984400 -0.074400
vn 0.001500 0.998800 -0.047700
vn -0.319800 0.745200 -0.585100
vn -0.599300 0.761200 -0.247900
vn -0.165500 0.971500 0.169600
vn -0.059300 0.978600 0.197100
vn -0.050300 0.997700 -0.044900
vn -0.190300 0.981500 -0.019900
vn 0.123800 0.983800 0.129900
vn 0.753000 0.657400 0.028100
vn 0.800100 0.579100 -0.156200
vn 0.076400 0.986800 -0.143100
vn -0.187000 0.434100 0.881200
vn 0.466900 0.390000 0.793600
vn 0.821900 0.460700 0.335100
vn -0.657300 0.668100 0.348600
vn -0.760400 0.539100 0.362100
vn -0.565800 0.373400 0.735200
vn -0.361500 0.539100 0.760700
vn -0.804300 0.594000 -0.017300
vn -0.676600 0.701100 -0.225100
vn 0.029900 -0.999400 -0.017300
vn 0.122600 -0.650600 -0.749400
vn 0.347800 -0.652000 -0.673800
vn 0.569800 -0.676900 -0.465900
vn 0.415400 -0.893400 -0.171100
vn -0.578400 -0.737700 -0.348200
vn -0.477900 -0.513900 -0.712400
vn 0.308500 -0.927300 -0.212000
vn 0.223000 -0.961400 0.160900
vn 0.356300 -0.933900 0.027400
vn 0.153900 -0.988000 0.007400
vn 0.089100 -0.994500 0.054400
vn 0.012800 -0.999900 0.000300
vn 0.717300 -0.658100 -0.228900
vn 0.736500 -0.673600 0.061600
vn -0.129500 -0.619200 0.774500
vn 0.295400 -0.637000 0.712000
vn 0.656500 -0.647600 0.386700
vn -0.566700 -0.807500 0.163500
vn -0.616600 -0.777700 0.122400
vn -0.642600 -0.614600 0.457500
vn -0.186800 -0.651200 0.735500
vn -0.574000 -0.816400 -0.063400
vn -0.608100 -0.766400 -0.206900
vn -0.029900 0.999400 0.017300
vn 0.569800 0.676900 -0.465900
vn 0.347800 0.652000 -0.673800
vn 0.054300 0.723600 -0.688000
vn -0.415400 0.893400 0.171100
vn -0.308500 0.927300 0.212000
vn -0.578600 0.608000 -0.543600
vn -0.859000 0.482600 0.170800
vn -0.223000 0.961400 -0.160900
vn -0.089100 0.994500 -0.054400
vn -0.153900 0.988000 -0.007400
vn -0.356300 0.933900 -0.027400
vn 0.736500 0.673600 0.061600
vn 0.717300 0.658100 -0.228900
vn -0.012800 0.999900 -0.000300
vn -0.213700 0.679600 0.701700
vn 0.295400 0.637000 0.712000
vn 0.656500 0.647600 0.386700
vn -0.770600 0.616900 -0.159900
vn -0.818500 0.570100 -0.070800
vn -0.776900 0.544500 0.316000
vn -0.453000 0.731600 0.509500
vn -0.816100 0.577400 -0.024100
vn -0.843800 0.515700 0.148000
vn -1.000000 0.000000 0.000000
vn -0.748600 0.663000 0.000000
vn -0.529300 0.663000 -0.529300
vn -0.707100 0.000000 -0.707100
vn -0.748600 -0.663000 0.000000
vn -0.529300 -0.663000 -0.529300
vn 0.000000 0.663000 -0.748600
vn 0.000000 0.000000 -1.000000
vn 0.000000 -0.663000 -0.748600
vn 0.529300 0.663000 -0.529300
vn 0.707100 0.000000 -0.707100
vn 0.529300 -0.663000 -0.529300
vn 0.748600 0.663000 0.000000
vn 1.000000 0.000000 0.000000
vn 0.748600 -0.663000 0.000000
vn 0.529300 0.663000 0.529300
vn 0.707100 0.000000 0.707100
vn 0.529300 -0.663000 0.529300
vn 0.000000 0.000000 1.000000
vn 0.000000 -0.663000 0.748600
vn 0.000000 0.663000 0.748600
vn -0.707100 0.000000 0.707100
vn -0.529300 -0.663000 0.529300
vn -0.529300 0.663000 0.529300
vn 0.073600 -0.683800 -0.725900
vn -0.440300 -0.712600 -0.546200
vn -0.267300 -0.637700 -0.722400
vn -0.069600 -0.677900 0.731800
vn -0.465900 -0.720800 0.513000
vn -0.631200 -0.646700 0.428100
vn -0.316000 -0.632900 0.706800
vn -0.093400 -0.728700 0.678400
vn -0.773800 -0.627600 -0.085500
vn -0.562500 -0.665200 -0.491000
vn 0.073600 0.683800 -0.725900
vn -0.267300 0.637700 -0.722400
vn -0.440300 0.712600 -0.546200
vn -0.069600 0.677900 0.731800
vn -0.465900 0.720800 0.513000
vn -0.631200 0.646700 0.428100
vn -0.316000 0.632900 0.706800
vn -0.093400 0.728700 0.678400
vn -0.773800 0.627600 -0.085500
vn -0.562500 0.665200 -0.491000
vn 0.022600 0.987200 0.157900
vn -0.022600 0.987200 0.157900
vn -0.009100 0.998400 0.055800
vn 0.009100 0.998400 0.055800
vn -0.004500 0.999600 -0.027900
vn 0.004500 0.999600 -0.027900
vn 0.057400 0.996800 -0.054600
vn 0.007800 0.999900 -0.008000
vn 0.001200 1.000000 -0.001800
vn 0.015700 0.999500 -0.027100
vn 0.000100 1.000000 0.000200
vn 0.000200 1.000000 0.000400
vn -0.000300 0.999000 -0.044700
vn 0.005900 0.999500 -0.031600
vn -0.001200 1.000000 -0.001900
vn 0.000000 1.000000 -0.000100
vn 0.012500 0.999900 -0.008700
vn 0.018300 0.999800 0.000000
vn 0.081900 0.972200 -0.219200
vn -0.081900 0.972200 -0.219200
vn -0.094900 0.995500 0.000000
vn 0.094900 0.995500 0.000000
vn -0.012500 0.999900 -0.008700
vn -0.018300 0.999800 0.000000
vn -0.199500 0.968200 -0.151000
vn -0.130600 0.989700 -0.058900
vn -0.158300 0.987400 0.000000
vn -0.233500 0.972400 0.000000
vn -0.041400 0.994700 -0.093700
vn -0.018900 0.999500 -0.024800
vn -0.069300 0.995700 -0.061600
vn -0.118500 0.975900 -0.183000
vn -0.003400 1.000000 -0.005000
vn -0.041400 0.994700 0.093700
vn -0.018900 0.999500 0.024800
vn -0.002400 1.000000 0.003700
vn -0.011600 0.999600 0.024700
vn -0.199500 0.968200 0.151000
vn -0.130600 0.989700 0.058900
vn -0.069300 0.995700 0.061600
vn -0.118500 0.975900 0.183000
vn -0.012500 0.999900 0.008700
vn -0.003400 1.000000 0.005000
vn 0.130600 0.989700 -0.058900
vn 0.199500 0.968200 -0.151000
vn 0.233500 0.972400 0.000000
vn 0.158300 0.987400 0.000000
vn 0.018900 0.999500 -0.024800
vn 0.041400 0.994700 -0.093700
vn 0.118500 0.975900 -0.183000
vn 0.069300 0.995700 -0.061600
vn 0.022600 0.987200 -0.157900
vn -0.022600 0.987200 -0.157900
vn -0.052500 0.959500 -0.276800
vn 0.052500 0.959500 -0.276800
vn 0.003400 1.000000 -0.005000
vn 0.012500 0.999900 0.008700
vn 0.003400 1.000000 0.005000
vn -0.001300 1.000000 -0.002000
vn -0.014300 0.999600 -0.023800
vn -0.008500 0.980100 0.198300
vn -0.177000 0.960800 0.213200
vn -0.049800 0.998300 -0.030200
vn -0.007100 1.000000 0.003000
vn -0.008600 0.924300 0.381400
vn 0.102200 0.985700 0.134200
vn 0.035000 0.998900 -0.030400
vn -0.000900 0.999500 -0.032000
vn -0.000200 1.000000 0.000300
vn -0.188300 0.962900 0.193200
vn 0.069100 0.984500 0.161000
vn 0.001100 0.999900 0.014400
vn -0.051600 0.994700 0.088900
vn 0.000000 0.961500 0.274800
vn -0.028200 0.973000 0.229100
vn -0.001900 0.999900 0.013100
vn 0.000000 0.999800 0.016000
vn 0.017000 0.999700 0.017500
vn 0.002700 1.000000 0.004100
vn 0.113200 0.986500 0.118300
vn 0.212700 0.956100 0.201600
vn 0.056600 0.993500 0.098600
vn 0.031000 0.998100 0.053300
vn -0.056200 0.996800 -0.056400
vn 0.000000 0.995600 -0.093600
vn 0.000000 0.998700 -0.050500
vn -0.015700 0.999500 -0.027100
vn -0.045900 0.969500 0.240600
vn 0.000000 0.826700 0.562600
vn 0.000000 0.993200 0.116000
vn -0.071100 0.997200 0.023300
vn 0.050400 0.973500 0.222800
vn -0.009700 0.999500 0.031100
vn 0.010600 0.999900 0.004100
vn 0.079300 0.996400 0.030500
vn -0.001200 1.000000 -0.001800
vn -0.005800 0.999900 -0.012400
vn 0.000000 1.000000 -0.000200
vn 0.005800 0.999900 -0.012400
vn 0.018900 0.999500 0.024800
vn 0.041400 0.994700 0.093700
vn 0.011600 0.999600 0.024700
vn 0.002400 1.000000 0.003700
vn 0.130600 0.989700 0.058900
vn 0.199500 0.968200 0.151000
vn 0.118500 0.975900 0.183000
vn 0.069300 0.995700 0.061600
vn 0.081900 0.972200 0.219200
vn -0.081900 0.972200 0.219200
vn -0.052500 0.959500 0.276800
vn 0.052500 0.959500 0.276800
vn 0.000000 0.728500 0.685000
vn 0.041700 0.893300 0.447400
vn -0.031700 0.998500 0.043900
vn 0.178600 0.906000 0.383700
vn -0.042700 0.875400 0.481500
vn 0.029200 0.999200 0.027500
vn 0.186000 0.972700 0.138600
vn 0.287400 0.935600 0.205000
vn 0.137900 0.945000 0.296400
vn 0.000000 0.859700 0.510800
vn -0.052500 0.900200 0.432300
vn -0.338800 0.882400 0.326200
vn -0.095100 0.981600 0.165700
vn -0.451500 0.832100 0.322200
vn -0.285600 0.934100 0.214000
vn -0.000400 1.000000 0.000600
vn -0.281400 0.814300 0.507600
vn 0.003900 0.818800 0.574100
vn -0.017400 0.913900 0.405400
vn -0.577400 0.577000 0.577700
vn -0.577300 0.577700 -0.577000
vn -0.577400 -0.577000 -0.577700
vn -0.577300 -0.577700 0.577000
vn 0.577300 0.577700 -0.577000
vn 0.577400 -0.577000 -0.577700
vn 0.577400 0.577000 0.577700
vn 0.577300 -0.577700 0.577000
usemtl None
s 1
f 2/1/1 1/2/2 5/3/3 6/4/4
f 3/5/5 2/1/1 6/4/4 7/6/6
f 6/4/4 5/3/3 8/7/7 9/8/8
f 7/6/6 6/4/4 9/8/8 10/9/9
f 9/8/8 8/7/7 11/10/10 12/11/11
f 10/9/9 9/8/8 12/11/11 13/12/12
f 12/11/11 11/10/10 14/13/13 15/14/14
f 13/12/12 12/11/11 15/14/14 16/15/15
f 15/16/14 14/17/13 17/18/16 18/19/17
f 16/20/15 15/16/14 18/19/17 19/21/18
f 19/21/18 18/19/17 21/22/19 22/23/20
f 18/19/17 17/18/16 20/24/21 21/22/19
f 22/23/20 21/22/19 25/25/22 26/26/23
f 21/22/19 20/24/21 24/27/24 25/25/22
f 4/28/25 3/5/5 7/6/6
f 1/2/2 23/29/26 5/3/3
f 4/28/25 7/6/6 10/9/9
f 5/3/3 23/29/26 8/7/7
f 4/28/25 10/9/9 13/12/12
f 8/7/7 23/29/26 11/10/10
f 4/28/25 13/12/12 16/15/15
f 11/10/10 23/29/26 14/13/13
f 14/17/13 23/29/26 17/18/16
f 4/28/25 16/20/15 19/21/18
f 17/18/16 23/29/26 20/24/21
f 4/28/25 19/21/18 22/23/20
f 20/24/21 23/29/26 24/27/24
f 4/28/25 22/23/20 26/26/23
f 26/26/23 25/25/22 2/1/1 3/5/5
f 24/27/24 23/29/26 1/2/2
f 4/28/25 26/26/23 3/5/5
f 25/25/22 24/27/24 1/2/2 2/1/1
f 28/30/27 27/31/28 31/32/29 32/33/30
f 29/34/31 28/30/27 32/33/30 33/35/32
f 32/33/30 31/32/29 34/36/33 35/37/34
f 33/35/32 32/33/30 35/37/34 36/38/35
f 35/37/34 34/36/33 37/39/36 38/40/37
f 36/38/35 35/37/34 38/40/37 39/41/38
f 38/40/37 37/39/36 40/42/39 41/43/40
f 39/41/38 38/40/37 41/43/40 42/44/41
f 41/45/40 40/46/39 43/47/42 44/48/43
f 42/49/41 41/45/40 44/48/43 45/50/44
f 45/50/44 44/48/43 47/51/45 48/52/46
f 44/48/43 43/47/42 46/53/47 47/51/45
f 48/52/46 47/51/45 51/54/48 52/55/49
f 47/51/45 46/53/47 50/56/50 51/54/48
f 30/57/51 29/34/31 33/35/32
f 27/31/28 49/58/52 31/32/29
f 30/57/51 33/35/32 36/38/35
f 31/32/29 49/58/52 34/36/33
f 30/57/51 36/38/35 39/41/38
f 34/36/33 49/58/52 37/39/36
f 30/57/51 39/41/38 42/44/41
f 37/39/36 49/58/52 40/42/39
f 40/46/39 49/58/52 43/47/42
f 30/57/51 42/49/41 45/50/44
f 43/47/42 49/58/52 46/53/47
f 30/57/51 45/50/44 48/52/46
f 46/53/47 49/58/52 50/56/50
f 30/57/51 48/52/46 52/55/49
f 52/55/49 51/54/48 28/30/27 29/34/31
f 50/56/50 49/58/52 27/31/28
f 30/57/51 52/55/49 29/34/31
f 51/54/48 50/56/50 27/31/28 28/30/27
f 77/59/53 69/60/54 56/61/55 64/62/56
f 76/63/53 65/64/57 60/65/58 70/66/53
f 75/67/53 72/68/53 61/69/53 71/70/53
f 74/71/53 73/72/53 59/73/59 68/74/60
f 71/70/53 61/69/53 73/72/53 74/71/53
f 58/75/61 71/70/53 74/71/53 63/76/62
f 63/76/62 74/71/53 68/74/60 54/77/63
f 62/78/64 57/79/65 72/68/53 75/67/53
f 53/80/66 62/78/64 75/67/53 67/81/67
f 67/81/67 75/67/53 71/70/53 58/75/61
f 66/82/68 55/83/69 65/64/57 76/63/53
f 57/79/65 66/82/68 76/63/53 72/68/53
f 72/68/53 76/63/53 70/66/53 61/69/53
f 70/66/53 60/65/58 69/60/54 77/59/53
f 61/69/53 70/66/53 77/59/53 73/72/53
f 73/72/53 77/59/53 64/62/56 59/73/59
f 102/84/70 89/85/71 81/86/72 94/87/73
f 101/88/70 95/89/70 85/90/74 90/91/75
f 100/92/70 96/93/70 86/94/70 97/95/70
f 99/96/70 93/97/76 84/98/77 98/99/70
f 96/93/70 99/96/70 98/99/70 86/94/70
f 83/100/78 88/101/79 99/96/70 96/93/70
f 88/101/79 79/102/80 93/97/76 99/96/70
f 87/103/81 100/92/70 97/95/70 82/104/82
f 78/105/83 92/106/84 100/92/70 87/103/81
f 92/106/84 83/100/78 96/93/70 100/92/70
f 91/107/85 101/88/70 90/91/75 80/108/86
f 82/104/82 97/95/70 101/88/70 91/107/85
f 97/95/70 86/94/70 95/89/70 101/88/70
f 95/89/70 102/84/70 94/87/73 85/90/74
f 86/94/70 98/99/70 102/84/70 95/89/70
f 98/99/70 84/98/77 89/85/71 102/84/70
f 56/109/55 69/110/54 94/111/73 81/112/72
f 57/113/65 62/114/64 87/115/81 82/116/82
f 67/117/67 58/118/61 83/119/78 92/120/84
f 58/118/61 63/121/62 88/122/79 83/119/78
f 68/123/60 59/124/59 84/125/77 93/126/76
f 59/124/59 64/127/56 89/128/71 84/125/77
f 69/110/54 60/129/58 85/130/74 94/111/73
f 62/114/64 53/131/66 78/132/83 87/115/81
f 60/129/58 65/133/57 90/134/75 85/130/74
f 63/121/62 54/135/63 79/136/80 88/122/79
f 55/137/69 66/138/68 91/139/85 80/140/86
f 64/127/56 56/109/55 81/112/72 89/128/71
f 53/131/66 67/117/67 92/120/84 78/132/83
f 65/133/57 55/137/69 80/140/86 90/134/75
f 54/141/63 68/123/60 93/126/76 79/142/80
f 66/138/68 57/113/65 82/116/82 91/139/85
f 127/143/53 119/144/87 106/145/88 114/146/89
f 126/147/53 115/148/90 110/149/91 120/150/53
f 125/151/53 122/152/53 111/153/53 121/154/53
f 124/155/53 123/156/53 109/157/92 118/158/93
f 121/154/53 111/153/53 123/156/53 124/155/53
f 108/159/94 121/154/53 124/155/53 113/160/95
f 113/160/95 124/155/53 118/158/93 104/161/96
f 112/162/97 107/163/98 122/152/53 125/151/53
f 103/164/99 112/162/97 125/151/53 117/165/100
f 117/165/100 125/151/53 121/154/53 108/159/94
f 116/166/101 105/167/102 115/148/90 126/147/53
f 107/163/98 116/166/101 126/147/53 122/152/53
f 122/152/53 126/147/53 120/150/53 111/153/53
f 120/150/53 110/149/91 119/144/87 127/143/53
f 111/153/53 120/150/53 127/143/53 123/156/53
f 123/156/53 127/143/53 114/146/89 109/157/92
f 152/168/70 139/169/103 131/170/104 144/171/105
f 151/172/70 145/173/70 135/174/106 140/175/107
f 150/176/70 146/177/70 136/178/70 147/179/70
f 149/180/70 143/181/108 134/182/109 148/183/70
f 146/177/70 149/180/70 148/183/70 136/178/70
f 133/184/110 138/185/111 149/180/70 146/177/70
f 138/185/111 129/186/112 143/181/108 149/180/70
f 137/187/113 150/176/70 147/179/70 132/188/114
f 128/189/115 142/190/116 150/176/70 137/187/113
f 142/190/116 133/184/110 146/177/70 150/176/70
f 141/191/117 151/172/70 140/175/107 130/192/118
f 132/188/114 147/179/70 151/172/70 141/191/117
f 147/179/70 136/178/70 145/173/70 151/172/70
f 145/173/70 152/168/70 144/171/105 135/174/106
f 136/178/70 148/183/70 152/168/70 145/173/70
f 148/183/70 134/182/109 139/169/103 152/168/70
f 106/193/88 119/194/87 144/195/105 131/196/104
f 107/197/98 112/198/97 137/199/113 132/200/114
f 117/201/100 108/202/94 133/203/110 142/204/116
f 108/202/94 113/205/95 138/206/111 133/203/110
f 118/207/93 109/208/92 134/209/109 143/210/108
f 109/208/92 114/211/89 139/212/103 134/209/109
f 119/194/87 110/213/91 135/214/106 144/195/105
f 112/198/97 103/215/99 128/216/115 137/199/113
f 110/213/91 115/217/90 140/218/107 135/214/106
f 113/205/95 104/219/96 129/220/112 138/206/111
f 105/221/102 116/222/101 141/223/117 130/224/118
f 114/211/89 106/193/88 131/196/104 139/212/103
f 103/215/99 117/201/100 142/204/116 128/216/115
f 115/217/90 105/221/102 130/224/118 140/218/107
f 104/225/96 118/207/93 143/210/108 129/226/112
f 116/222/101 107/197/98 132/200/114 141/223/117
f 177/227/119 169/228/120 156/229/121 164/230/122
f 176/231/123 165/232/124 160/233/125 170/234/126
f 175/235/127 172/236/128 161/237/129 171/238/130
f 174/239/131 173/240/132 159/241/133 168/242/134
f 171/238/130 161/237/129 173/240/132 174/239/131
f 158/243/135 171/238/130 174/239/131 163/244/136
f 163/244/136 174/239/131 168/242/134 154/245/137
f 162/246/138 157/247/139 172/236/128 175/235/127
f 153/248/140 162/246/138 175/235/127 167/249/141
f 167/249/141 175/235/127 171/238/130 158/243/135
f 166/250/142 155/251/143 165/232/124 176/231/123
f 157/247/139 166/250/142 176/231/123 172/236/128
f 172/236/128 176/231/123 170/234/126 161/237/129
f 170/234/126 160/233/125 169/228/120 177/227/119
f 161/237/129 170/234/126 177/227/119 173/240/132
f 173/240/132 177/227/119 164/230/122 159/241/133
f 202/252/144 189/253/145 181/254/146 194/255/147
f 201/256/148 195/257/149 185/258/150 190/259/151
f 200/260/152 196/261/153 186/262/154 197/263/155
f 199/264/156 193/265/157 184/266/158 198/267/159
f 196/261/153 199/264/156 198/267/159 186/262/154
f 183/268/160 188/269/161 199/264/156 196/261/153
f 188/269/161 179/270/162 193/265/157 199/264/156
f 187/271/163 200/260/152 197/263/155 182/272/164
f 178/273/165 192/274/166 200/260/152 187/271/163
f 192/274/166 183/268/160 196/261/153 200/260/152
f 191/275/167 201/256/148 190/259/151 180/276/168
f 182/272/164 197/263/155 201/256/148 191/275/167
f 197/263/155 186/262/154 195/257/149 201/256/148
f 195/257/149 202/252/144 194/255/147 185/258/150
f 186/262/154 198/267/159 202/252/144 195/257/149
f 198/267/159 184/266/158 189/253/145 202/252/144
f 156/277/121 169/278/120 194/279/147 181/280/146
f 157/281/139 162/282/138 187/283/163 182/284/164
f 167/285/141 158/286/135 183/287/160 192/288/166
f 158/286/135 163/289/136 188/290/161 183/287/160
f 168/291/134 159/292/133 184/293/158 193/294/157
f 159/292/133 164/295/122 189/296/145 184/293/158
f 169/278/120 160/297/125 185/298/150 194/279/147
f 162/282/138 153/299/140 178/300/165 187/283/163
f 160/297/125 165/301/124 190/302/151 185/298/150
f 163/289/136 154/303/137 179/304/162 188/290/161
f 155/305/143 166/306/142 191/307/167 180/308/168
f 164/295/122 156/277/121 181/280/146 189/296/145
f 153/299/140 167/285/141 192/288/166 178/300/165
f 165/301/124 155/305/143 180/308/168 190/302/151
f 154/309/137 168/291/134 193/294/157 179/310/162
f 166/306/142 157/281/139 182/284/164 191/307/167
f 227/311/169 219/312/170 206/313/171 214/314/172
f 226/315/173 215/316/174 210/317/175 220/318/176
f 225/319/177 222/320/178 211/321/179 221/322/180
f 224/323/53 223/324/181 209/325/182 218/326/183
f 221/322/180 211/321/179 223/324/181 224/323/53
f 208/327/184 221/322/180 224/323/53 213/328/185
f 213/328/185 224/323/53 218/326/183 204/329/186
f 212/330/187 207/331/188 222/320/178 225/319/177
f 203/332/189 212/330/187 225/319/177 217/333/190
f 217/333/190 225/319/177 221/322/180 208/327/184
f 216/334/191 205/335/192 215/316/174 226/315/173
f 207/331/188 216/334/191 226/315/173 222/320/178
f 222/320/178 226/315/173 220/318/176 211/321/179
f 220/318/176 210/317/175 219/312/170 227/311/169
f 211/321/179 220/318/176 227/311/169 223/324/181
f 223/324/181 227/311/169 214/314/172 209/325/182
f 252/336/193 239/337/194 231/338/195 244/339/196
f 251/340/197 245/341/198 235/342/199 240/343/200
f 250/344/201 246/345/202 236/346/203 247/347/204
f 249/348/70 243/349/205 234/350/206 248/351/207
f 246/345/202 249/348/70 248/351/207 236/346/203
f 233/352/208 238/353/209 249/348/70 246/345/202
f 238/353/209 229/354/210 243/349/205 249/348/70
f 237/355/211 250/344/201 247/347/204 232/356/212
f 228/357/213 242/358/214 250/344/201 237/355/211
f 242/358/214 233/352/208 246/345/202 250/344/201
f 241/359/215 251/340/197 240/343/200 230/360/216
f 232/356/212 247/347/204 251/340/197 241/359/215
f 247/347/204 236/346/203 245/341/198 251/340/197
f 245/341/198 252/336/193 244/339/196 235/342/199
f 236/346/203 248/351/207 252/336/193 245/341/198
f 248/351/207 234/350/206 239/337/194 252/336/193
f 206/361/171 219/362/170 244/363/196 231/364/195
f 207/365/188 212/366/187 237/367/211 232/368/212
f 217/369/190 208/370/184 233/371/208 242/372/214
f 208/370/184 213/373/185 238/374/209 233/371/208
f 218/375/183 209/376/182 234/377/206 243/378/205
f 209/376/182 214/379/172 239/380/194 234/377/206
f 219/362/170 210/381/175 235/382/199 244/363/196
f 212/366/187 203/383/189 228/384/213 237/367/211
f 210/381/175 215/385/174 240/386/200 235/382/199
f 213/373/185 204/387/186 229/388/210 238/374/209
f 205/389/192 216/390/191 241/391/215 230/392/216
f 214/379/172 206/361/171 231/364/195 239/380/194
f 203/383/189 217/369/190 242/372/214 228/384/213
f 215/385/174 205/389/192 230/392/216 240/386/200
f 204/393/186 218/375/183 243/378/205 229/394/210
f 216/390/191 207/365/188 232/368/212 241/391/215
f 254/395/217 253/396/218 257/397/219 258/398/220
f 255/399/221 254/395/217 258/398/220 259/400/222
f 258/398/220 257/397/219 260/401/223 261/402/224
f 259/400/222 258/398/220 261/402/224 262/403/225
f 261/402/224 260/401/223 263/404/226 264/405/227
f 262/403/225 261/402/224 264/405/227 265/406/228
f 264/405/227 263/404/226 266/407/229 267/408/230
f 265/406/228 264/405/227 267/408/230 268/409/231
f 267/410/230 266/411/229 269/412/232 270/413/233
f 268/414/231 267/410/230 270/413/233 271/415/234
f 271/415/234 270/413/233 273/416/235 274/417/236
f 270/413/233 269/412/232 272/418/237 273/416/235
f 274/417/236 273/416/235 277/419/238 278/420/239
f 273/416/235 272/418/237 276/421/240 277/419/238
f 256/422/53 255/399/221 259/400/222
f 253/396/218 275/423/70 257/397/219
f 256/422/53 259/400/222 262/403/225
f 257/397/219 275/423/70 260/401/223
f 256/422/53 262/403/225 265/406/228
f 260/401/223 275/423/70 263/404/226
f 256/422/53 265/406/228 268/409/231
f 263/404/226 275/423/70 266/407/229
f 266/411/229 275/423/70 269/412/232
f 256/422/53 268/414/231 271/415/234
f 269/412/232 275/423/70 272/418/237
f 256/422/53 271/415/234 274/417/236
f 272/418/237 275/423/70 276/421/240
f 256/422/53 274/417/236 278/420/239
f 278/420/239 277/419/238 254/395/217 255/399/221
f 276/421/240 275/423/70 253/396/218
f 256/422/53 278/420/239 255/399/221
f 277/419/238 276/421/240 253/396/218 254/395/217
f 303/424/53 295/425/241 282/426/171 290/427/172
f 302/428/53 291/429/242 286/430/243 296/431/53
f 301/432/53 298/433/53 287/434/53 297/435/53
f 300/436/53 299/437/53 285/438/182 294/439/183
f 297/435/53 287/434/53 299/437/53 300/436/53
f 284/440/244 297/435/53 300/436/53 289/441/185
f 289/441/185 300/436/53 294/439/183 280/442/186
f 288/443/245 283/444/246 298/433/53 301/432/53
f 279/445/247 288/443/245 301/432/53 293/446/248
f 293/446/248 301/432/53 297/435/53 284/440/244
f 292/447/249 281/448/250 291/429/242 302/428/53
f 283/444/246 292/447/249 302/428/53 298/433/53
f 298/433/53 302/428/53 296/431/53 287/434/53
f 296/431/53 286/430/243 295/425/241 303/424/53
f 287/434/53 296/431/53 303/424/53 299/437/53
f 299/437/53 303/424/53 290/427/172 285/438/182
f 328/449/70 315/450/194 307/451/195 320/452/251
f 327/453/70 321/454/70 311/455/252 316/456/253
f 326/457/70 322/458/70 312/459/70 323/460/70
f 325/461/70 319/462/205 310/463/206 324/464/70
f 322/458/70 325/461/70 324/464/70 312/459/70
f 309/465/254 314/466/209 325/461/70 322/458/70
f 314/466/209 305/467/210 319/462/205 325/461/70
f 313/468/255 326/457/70 323/460/70 308/469/256
f 304/470/257 318/471/258 326/457/70 313/468/255
f 318/471/258 309/465/254 322/458/70 326/457/70
f 317/472/259 327/453/70 316/456/253 306/473/260
f 308/469/256 323/460/70 327/453/70 317/472/259
f 323/460/70 312/459/70 321/454/70 327/453/70
f 321/454/70 328/449/70 320/452/251 311/455/252
f 312/459/70 324/464/70 328/449/70 321/454/70
f 324/464/70 310/463/206 315/450/194 328/449/70
f 282/474/171 295/475/241 320/476/251 307/477/195
f 283/478/246 288/479/245 313/480/255 308/481/256
f 293/482/248 284/483/244 309/484/254 318/485/258
f 284/483/244 289/486/185 314/487/209 309/484/254
f 294/488/183 285/489/182 310/490/206 319/491/205
f 285/489/182 290/492/172 315/493/194 310/490/206
f 295/475/241 286/494/243 311/495/252 320/476/251
f 288/479/245 279/496/247 304/497/257 313/480/255
f 286/494/243 291/498/242 316/499/253 311/495/252
f 289/486/185 280/500/186 305/501/210 314/487/209
f 281/502/250 292/503/249 317/504/259 306/505/260
f 290/492/172 282/474/171 307/477/195 315/493/194
f 279/496/247 293/482/248 318/485/258 304/497/257
f 291/498/242 281/502/250 306/505/260 316/499/253
f 280/506/186 294/488/183 319/491/205 305/507/210
f 292/503/249 283/478/246 308/481/256 317/504/259
f 617/508/70 412/509/70 332/510/70 469/511/70
f 616/512/261 418/513/262 336/514/263 465/515/264
f 615/516/70 419/517/70 337/518/265 472/519/266
f 614/520/70 416/521/70 335/522/70 473/523/70
f 613/524/70 434/525/70 349/526/70 461/527/70
f 612/528/267 435/529/268 350/530/269 476/531/270
f 611/532/271 428/533/272 344/534/70 477/535/70
f 610/536/70 438/537/70 348/538/70 460/539/70
f 609/540/70 439/541/70 351/542/70 480/543/70
f 608/544/273 431/545/274 347/546/275 481/547/276
f 607/548/70 442/549/70 341/550/70 453/551/70
f 606/552/70 443/553/277 352/554/278 484/555/70
f 605/556/279 430/557/280 346/558/281 485/559/282
f 604/560/70 446/561/70 345/562/70 457/563/70
f 603/564/283 447/565/70 353/566/70 488/567/284
f 602/568/70 424/569/70 340/570/70 489/571/70
f 601/572/70 490/573/70 393/574/70 449/575/70
f 600/576/70 491/577/70 394/578/70 492/579/70
f 599/580/70 464/581/70 368/582/70 493/583/70
f 598/584/285 494/585/286 392/586/287 448/587/288
f 597/588/289 495/589/290 395/590/291 496/591/292
f 596/592/70 487/593/70 391/594/70 497/595/293
f 595/596/294 498/597/295 361/598/296 417/599/297
f 594/600/298 499/601/299 396/602/300 500/603/301
f 593/604/302 486/605/70 390/606/70 501/607/303
f 592/608/304 502/609/305 389/610/306 445/611/307
f 591/612/308 503/613/309 397/614/310 504/615/311
f 590/616/312 470/617/313 374/618/314 505/619/315
f 589/620/70 506/621/70 388/622/70 444/623/70
f 588/624/70 507/625/70 398/626/70 508/627/70
f 587/628/70 483/629/70 387/630/316 509/631/70
f 586/632/70 510/633/70 357/634/70 413/635/70
f 585/636/70 511/637/70 399/638/70 512/639/70
f 584/640/70 482/641/317 386/642/318 513/643/70
f 583/644/319 514/645/320 385/646/70 441/647/70
f 582/648/321 515/649/322 400/650/323 516/651/324
f 581/652/325 471/653/326 375/654/327 517/655/328
f 580/656/329 518/657/70 384/658/70 440/659/70
f 579/660/330 519/661/331 401/662/332 520/663/333
f 578/664/334 479/665/335 383/666/336 521/667/337
f 577/668/70 522/669/70 364/670/70 420/671/70
f 576/672/70 523/673/70 402/674/70 524/675/70
f 575/676/70 478/677/70 382/678/70 525/679/70
f 574/680/70 526/681/70 381/682/70 437/683/70
f 573/684/70 527/685/338 403/686/339 528/687/70
f 572/688/340 468/689/341 372/690/342 529/691/343
f 571/692/344 530/693/345 380/694/346 436/695/347
f 570/696/348 531/697/349 404/698/350 532/699/351
f 569/700/352 475/701/353 379/702/354 533/703/355
f 568/704/70 534/705/70 365/706/356 421/707/357
f 567/708/276 535/709/358 405/710/70 536/711/70
f 566/712/276 474/713/70 378/714/70 537/715/70
f 565/716/70 538/717/70 377/718/70 433/719/70
f 564/720/70 539/721/70 406/722/70 540/723/70
f 563/724/70 456/725/70 360/726/70 541/727/70
f 562/728/70 542/729/70 376/730/359 432/731/269
f 561/732/70 543/733/70 407/734/70 544/735/70
f 560/736/70 459/737/70 363/738/70 545/739/70
f 559/740/360 546/741/361 369/742/362 425/743/363
f 558/744/364 547/745/365 408/746/366 548/747/367
f 557/748/368 458/749/369 362/750/370 549/751/371
f 556/752/70 550/753/70 373/754/70 429/755/70
f 555/756/70 551/757/70 409/758/70 552/759/70
f 554/760/70 452/761/70 356/762/70 553/763/70
f 551/757/70 554/760/70 553/763/70 409/758/70
f 393/574/70 489/571/70 554/760/70 551/757/70
f 489/571/70 340/570/70 452/761/70 554/760/70
f 486/605/70 555/756/70 552/759/70 390/606/70
f 353/566/70 449/575/70 555/756/70 486/605/70
f 449/575/70 393/574/70 551/757/70 555/756/70
f 446/561/70 556/752/70 429/755/70 345/562/70
f 390/606/70 552/759/70 556/752/70 446/561/70
f 552/759/70 409/758/70 550/753/70 556/752/70
f 547/745/365 557/748/368 549/751/371 408/746/366
f 389/610/306 485/559/282 557/748/368 547/745/365
f 485/559/282 346/558/281 458/749/369 557/748/368
f 482/641/317 558/744/364 548/747/367 386/642/318
f 352/554/278 445/611/307 558/744/364 482/641/317
f 445/611/307 389/610/306 547/745/365 558/744/364
f 442/549/70 559/740/360 425/743/363 341/550/70
f 386/642/318 548/747/367 559/740/360 442/549/70
f 548/747/367 408/746/366 546/741/361 559/740/360
f 543/733/70 560/736/70 545/739/70 407/734/70
f 385/646/70 481/547/276 560/736/70 543/733/70
f 481/547/276 347/546/275 459/737/70 560/736/70
f 478/677/70 561/732/70 544/735/70 382/678/70
f 351/542/70 441/647/70 561/732/70 478/677/70
f 441/647/70 385/646/70 543/733/70 561/732/70
f 438/537/70 562/728/70 432/731/269 348/538/70
f 382/678/70 544/735/70 562/728/70 438/537/70
f 544/735/70 407/734/70 542/729/70 562/728/70
f 539/721/70 563/724/70 541/727/70 406/722/70
f 381/682/70 477/535/70 563/724/70 539/721/70
f 477/535/70 344/534/70 456/725/70 563/724/70
f 474/713/70 564/720/70 540/723/70 378/714/70
f 350/530/269 437/683/70 564/720/70 474/713/70
f 437/683/70 381/682/70 539/721/70 564/720/70
f 434/525/70 565/716/70 433/719/70 349/526/70
f 378/714/70 540/723/70 565/716/70 434/525/70
f 540/723/70 406/722/70 538/717/70 565/716/70
f 535/709/358 566/712/276 537/715/70 405/710/70
f 380/694/346 476/531/270 566/712/276 535/709/358
f 476/531/270 350/530/269 474/713/70 566/712/276
f 459/737/70 567/708/276 536/711/70 363/738/70
f 347/546/275 436/695/347 567/708/276 459/737/70
f 436/695/347 380/694/346 535/709/358 567/708/276
f 419/517/70 568/704/70 421/707/357 337/518/265
f 363/738/70 536/711/70 568/704/70 419/517/70
f 536/711/70 405/710/70 534/705/70 568/704/70
f 531/697/349 569/700/352 533/703/355 404/698/350
f 367/764/372 423/765/373 569/700/352 531/697/349
f 423/765/373 339/766/374 475/701/353 569/700/352
f 471/653/326 570/696/348 532/699/351 375/654/327
f 334/767/375 463/768/376 570/696/348 471/653/326
f 463/768/376 367/764/372 531/697/349 570/696/348
f 431/545/274 571/692/344 436/695/347 347/546/275
f 375/654/327 532/699/351 571/692/344 431/545/274
f 532/699/351 404/698/350 530/693/345 571/692/344
f 527/685/338 572/688/340 529/691/343 403/686/339
f 355/769/377 411/770/378 572/688/340 527/685/338
f 411/770/378 330/771/379 468/689/341 572/688/340
f 475/701/353 573/684/70 528/687/70 379/702/354
f 339/766/374 451/772/70 573/684/70 475/701/353
f 451/772/70 355/769/377 527/685/338 573/684/70
f 435/529/268 574/680/70 437/683/70 350/530/269
f 379/702/354 528/687/70 574/680/70 435/529/268
f 528/687/70 403/686/339 526/681/70 574/680/70
f 523/673/70 575/676/70 525/679/70 402/674/70
f 384/658/70 480/543/70 575/676/70 523/673/70
f 480/543/70 351/542/70 478/677/70 575/676/70
f 422/773/70 576/672/70 524/675/70 366/774/70
f 338/775/70 440/659/70 576/672/70 422/773/70
f 440/659/70 384/658/70 523/673/70 576/672/70
f 462/776/70 577/668/70 420/671/70 333/777/70
f 366/774/70 524/675/70 577/668/70 462/776/70
f 524/675/70 402/674/70 522/669/70 577/668/70
f 519/661/331 578/664/334 521/667/337 401/662/332
f 371/778/380 427/779/381 578/664/334 519/661/331
f 427/779/381 343/780/382 479/665/335 578/664/334
f 410/781/383 579/660/330 520/663/333 354/782/384
f 329/783/385 467/784/386 579/660/330 410/781/383
f 467/784/386 371/778/380 519/661/331 579/660/330
f 450/785/387 580/656/329 440/659/70 338/775/70
f 354/782/384 520/663/333 580/656/329 450/785/387
f 520/663/333 401/662/332 518/657/70 580/656/329
f 515/649/322 581/652/325 517/655/328 400/650/323
f 359/786/388 415/787/389 581/652/325 515/649/322
f 415/787/389 334/767/375 471/653/326 581/652/325
f 479/665/335 582/648/321 516/651/324 383/666/336
f 343/780/382 455/788/390 582/648/321 479/665/335
f 455/788/390 359/786/388 515/649/322 582/648/321
f 439/541/70 583/644/319 441/647/70 351/542/70
f 383/666/336 516/651/324 583/644/319 439/541/70
f 516/651/324 400/650/323 514/645/320 583/644/319
f 511/637/70 584/640/70 513/643/70 399/638/70
f 388/622/70 484/555/70 584/640/70 511/637/70
f 484/555/70 352/554/278 482/641/317 584/640/70
f 426/789/70 585/636/70 512/639/70 370/790/70
f 342/791/70 444/623/70 585/636/70 426/789/70
f 444/623/70 388/622/70 511/637/70 585/636/70
f 466/792/70 586/632/70 413/635/70 331/793/70
f 370/790/70 512/639/70 586/632/70 466/792/70
f 512/639/70 399/638/70 510/633/70 586/632/70
f 507/625/70 587/628/70 509/631/70 398/626/70
f 364/670/70 460/539/70 587/628/70 507/625/70
f 460/539/70 348/538/70 483/629/70 587/628/70
f 414/794/70 588/624/70 508/627/70 358/795/70
f 333/777/70 420/671/70 588/624/70 414/794/70
f 420/671/70 364/670/70 507/625/70 588/624/70
f 454/796/70 589/620/70 444/623/70 342/791/70
f 358/795/70 508/627/70 589/620/70 454/796/70
f 508/627/70 398/626/70 506/621/70 589/620/70
f 503/613/309 590/616/312 505/619/315 397/614/310
f 376/730/359 472/519/266 590/616/312 503/613/309
f 472/519/266 337/518/265 470/617/313 590/616/312
f 483/629/70 591/612/308 504/615/311 387/630/316
f 348/538/70 432/731/269 591/612/308 483/629/70
f 432/731/269 376/730/359 503/613/309 591/612/308
f 443/553/277 592/608/304 445/611/307 352/554/278
f 387/630/316 504/615/311 592/608/304 443/553/277
f 504/615/311 397/614/310 502/609/305 592/608/304
f 499/601/299 593/604/302 501/607/303 396/602/300
f 392/586/287 488/567/284 593/604/302 499/601/299
f 488/567/284 353/566/70 486/605/70 593/604/302
f 458/749/369 594/600/298 500/603/301 362/750/370
f 346/558/281 448/587/288 594/600/298 458/749/369
f 448/587/288 392/586/287 499/601/299 594/600/298
f 418/513/262 595/596/294 417/599/297 336/514/263
f 362/750/370 500/603/301 595/596/294 418/513/262
f 500/603/301 396/602/300 498/597/295 595/596/294
f 495/589/290 596/592/70 497/595/293 395/590/291
f 365/706/356 461/527/70 596/592/70 495/589/290
f 461/527/70 349/526/70 487/593/70 596/592/70
f 470/617/313 597/588/289 496/591/292 374/618/314
f 337/518/265 421/707/357 597/588/289 470/617/313
f 421/707/357 365/706/356 495/589/290 597/588/289
f 430/557/280 598/584/285 448/587/288 346/558/281
f 374/618/314 496/591/292 598/584/285 430/557/280
f 496/591/292 395/590/291 494/585/286 598/584/285
f 491/577/70 599/580/70 493/583/70 394/578/70
f 377/718/70 473/523/70 599/580/70 491/577/70
f 473/523/70 335/522/70 464/581/70 599/580/70
f 487/593/70 600/576/70 492/579/70 391/594/70
f 349/526/70 433/719/70 600/576/70 487/593/70
f 433/719/70 377/718/70 491/577/70 600/576/70
f 447/565/70 601/572/70 449/575/70 353/566/70
f 391/594/70 492/579/70 601/572/70 447/565/70
f 492/579/70 394/578/70 490/573/70 601/572/70
f 490/573/70 602/568/70 489/571/70 393/574/70
f 394/578/70 493/583/70 602/568/70 490/573/70
f 493/583/70 368/582/70 424/569/70 602/568/70
f 494/585/286 603/564/283 488/567/284 392/586/287
f 395/590/291 497/595/293 603/564/283 494/585/286
f 497/595/293 391/594/70 447/565/70 603/564/283
f 498/597/295 604/560/70 457/563/70 361/598/296
f 396/602/300 501/607/303 604/560/70 498/597/295
f 501/607/303 390/606/70 446/561/70 604/560/70
f 502/609/305 605/556/279 485/559/282 389/610/306
f 397/614/310 505/619/315 605/556/279 502/609/305
f 505/619/315 374/618/314 430/557/280 605/556/279
f 506/621/70 606/552/70 484/555/70 388/622/70
f 398/626/70 509/631/70 606/552/70 506/621/70
f 509/631/70 387/630/316 443/553/277 606/552/70
f 510/633/70 607/548/70 453/551/70 357/634/70
f 399/638/70 513/643/70 607/548/70 510/633/70
f 513/643/70 386/642/318 442/549/70 607/548/70
f 514/645/320 608/544/273 481/547/276 385/646/70
f 400/650/323 517/655/328 608/544/273 514/645/320
f 517/655/328 375/654/327 431/545/274 608/544/273
f 518/657/70 609/540/70 480/543/70 384/658/70
f 401/662/332 521/667/337 609/540/70 518/657/70
f 521/667/337 383/666/336 439/541/70 609/540/70
f 522/669/70 610/536/70 460/539/70 364/670/70
f 402/674/70 525/679/70 610/536/70 522/669/70
f 525/679/70 382/678/70 438/537/70 610/536/70
f 526/681/70 611/532/271 477/535/70 381/682/70
f 403/686/339 529/691/343 611/532/271 526/681/70
f 529/691/343 372/690/342 428/533/272 611/532/271
f 530/693/345 612/528/267 476/531/270 380/694/346
f 404/698/350 533/703/355 612/528/267 530/693/345
f 533/703/355 379/702/354 435/529/268 612/528/267
f 534/705/70 613/524/70 461/527/70 365/706/356
f 405/710/70 537/715/70 613/524/70 534/705/70
f 537/715/70 378/714/70 434/525/70 613/524/70
f 538/717/70 614/520/70 473/523/70 377/718/70
f 406/722/70 541/727/70 614/520/70 538/717/70
f 541/727/70 360/726/70 416/521/70 614/520/70
f 542/729/70 615/516/70 472/519/266 376/730/359
f 407/734/70 545/739/70 615/516/70 542/729/70
f 545/739/70 363/738/70 419/517/70 615/516/70
f 546/741/361 616/512/261 465/515/264 369/742/362
f 408/746/366 549/751/371 616/512/261 546/741/361
f 549/751/371 362/750/370 418/513/262 616/512/261
f 550/753/70 617/508/70 469/511/70 373/754/70
f 409/758/70 553/763/70 617/508/70 550/753/70
f 553/763/70 356/762/70 412/509/70 617/508/70
f 619/797/391 621/798/392 620/799/393 618/800/394
f 621/801/392 625/802/395 624/803/396 620/799/393
f 625/804/395 623/805/397 622/806/398 624/803/396
f 623/807/397 619/808/391 618/800/394 622/806/398
f 618/800/394 620/799/393 624/803/396 622/806/398
f 623/809/397 625/810/395 621/811/392 619/812/391
