# Blender v2.76 (sub 0) OBJ File: ''
# www.blender.org
mtllib rock2.mtl
o Sphere.002
v 0.967456 1.288637 -0.164702
v 1.098221 1.311942 -0.159606
v 1.088733 1.376134 -0.250905
v 0.986423 1.318227 -0.286612
v 0.971212 1.210592 -0.164702
v 1.006919 1.210592 -0.250905
v 1.108333 1.440137 -0.286612
v 1.093122 1.332502 -0.337108
v 1.093122 1.210592 -0.286612
v 1.173943 1.449497 -0.250905
v 1.198493 1.317401 -0.286612
v 1.173943 1.205678 -0.250905
v 1.197599 1.426461 -0.154595
v 1.217298 1.288465 -0.164702
v 1.198493 1.195491 -0.164702
v 1.171005 1.407247 -0.045266
v 1.197615 1.304776 -0.032862
v 1.173943 1.205678 -0.078499
v 1.091401 1.307745 0.027177
v 1.093122 1.210592 -0.042793
v 1.104274 1.381765 0.003122
v 0.985970 1.311713 -0.037669
v 1.006919 1.210592 -0.078499
v 1.085810 1.334097 -0.045433
v 1.093122 1.160096 -0.164702
v 1.134444 1.435261 -0.147203
vt 0.706045 0.650728
vt 0.705303 0.641428
vt 0.714126 0.640538
vt 0.713004 0.648865
vt 0.706097 0.655797
vt 0.712287 0.655875
vt 0.719481 0.638202
vt 0.719391 0.646202
vt 0.720228 0.656951
vt 0.723704 0.633551
vt 0.730912 0.645176
vt 0.730851 0.660924
vt 0.735184 0.604502
vt 0.763450 0.647365
vt 0.748060 0.679308
vt 0.645835 0.649685
vt 0.673532 0.604502
vt 0.686933 0.635647
vt 0.680462 0.646123
vt 0.663725 0.681455
vt 0.680399 0.661711
vt 0.692250 0.647087
vt 0.691565 0.657236
vt 0.691590 0.641811
vt 0.699014 0.649438
vt 0.699892 0.656015
vt 0.696864 0.643303
vt 0.706363 0.687858
vt 0.703433 0.607237
vn -0.362600 0.858900 0.361700
vn -0.945600 -0.176100 -0.273500
vn -0.657900 0.657900 -0.366500
vn -0.359200 -0.356000 -0.862700
vn 0.435100 0.319600 -0.841700
vn 0.360800 -0.356000 -0.862000
vn 0.972100 0.183900 -0.145400
vn 0.940000 -0.241200 -0.241200
vn 0.964200 0.187500 0.187300
vn 0.939500 -0.260600 0.222300
vn 0.377500 -0.501000 0.778800
vn 0.499100 0.212400 0.840100
vn -0.415500 -0.479500 0.773000
vn -0.562000 0.762700 0.320100
vn -0.378000 -0.912500 -0.156600
vn -0.930900 0.246300 0.269900
vn -0.156600 -0.912500 -0.378000
vn -0.906700 0.379800 0.183100
vn 0.112200 -0.918000 -0.380300
vn -0.176800 0.981900 0.067500
vn 0.312100 -0.929100 -0.198700
vn 0.157500 0.968500 0.193000
vn 0.158900 0.965100 0.208200
vn 0.312100 -0.929100 0.198700
vn -0.136400 0.941600 0.307700
vn 0.112200 -0.918000 0.380300
vn -0.916400 0.398000 -0.042300
vn -0.156600 -0.912500 0.378000
vn -0.946400 -0.190000 0.261200
vn -0.942800 0.292900 -0.159300
vn -0.378000 -0.912500 0.156600
vn -0.193300 0.965200 -0.176100
usemtl None.002
s off
f 1/1/1 2/2/1 3/3/1 4/4/1
f 5/5/2 1/1/2 4/4/2 6/6/2
f 4/4/3 3/3/3 7/7/3 8/8/3
f 6/6/4 4/4/4 8/8/4 9/9/4
f 8/8/5 7/7/5 10/10/5 11/11/5
f 9/9/6 8/8/6 11/11/6 12/12/6
f 11/11/7 10/10/7 13/13/7 14/14/7
f 12/12/8 11/11/8 14/14/8 15/15/8
f 14/16/9 13/17/9 16/18/9 17/19/9
f 15/20/10 14/16/10 17/19/10 18/21/10
f 18/21/11 17/19/11 19/22/11 20/23/11
f 17/19/12 16/18/12 21/24/12 19/22/12
f 20/23/13 19/22/13 22/25/13 23/26/13
f 19/22/14 21/24/14 24/27/14 22/25/14
f 25/28/15 5/5/15 6/6/15
f 2/2/16 26/29/16 3/3/16
f 25/28/17 6/6/17 9/9/17
f 3/3/18 26/29/18 7/7/18
f 25/28/19 9/9/19 12/12/19
f 7/7/20 26/29/20 10/10/20
f 25/28/21 12/12/21 15/15/21
f 10/10/22 26/29/22 13/13/22
f 13/17/23 26/29/23 16/18/23
f 25/28/24 15/20/24 18/21/24
f 16/18/25 26/29/25 21/24/25
f 25/28/26 18/21/26 20/23/26
f 21/24/27 26/29/27 24/27/27
f 25/28/28 20/23/28 23/26/28
f 23/26/29 22/25/29 1/1/29 5/5/29
f 24/27/30 26/29/30 2/2/30
f 25/28/31 23/26/31 5/5/31
f 22/25/32 24/27/32 2/2/32 1/1/32
