# Blender v2.75 (sub 0) OBJ File: 'ground.blend'
# www.blender.org
mtllib soil.mtl
o Sphere.001
v -3.000000 -0.049337 1.551057
v -3.000000 0.950663 1.551057
v -3.000000 -0.046989 -0.346931
v -3.000000 0.953011 -0.346931
v 3.000000 -0.049337 1.551057
v 3.000000 0.950663 1.551057
v 3.000000 -0.046988 -0.346931
v 3.000000 0.953011 -0.346931
vt 0.000213 0.287397
vt 0.000213 0.099230
vt 0.099353 0.099353
vt 0.099353 0.287520
vt 0.099353 0.000213
vt 0.694194 0.000213
vt 0.694194 0.099353
vt 0.793334 0.099231
vt 0.793334 0.287397
vt 0.694194 0.287520
vt 0.694194 0.386660
vt 0.099353 0.386660
vt 0.595054 0.811620
vt 0.595054 0.999787
vt 0.000213 0.999787
vt 0.000213 0.811620
vn -0.577400 0.577000 0.577700
vn -0.577300 0.577700 -0.577000
vn -0.577400 -0.577000 -0.577700
vn -0.577300 -0.577700 0.577000
vn 0.577300 0.577700 -0.577000
vn 0.577400 -0.577000 -0.577700
vn 0.577400 0.577000 0.577700
vn 0.577300 -0.577700 0.577000
usemtl None
s 1
f 2/1/1 4/2/2 3/3/3 1/4/4
f 4/5/2 8/6/5 7/7/6 3/3/3
f 8/8/5 6/9/7 5/10/8 7/7/6
f 6/11/7 2/12/1 1/4/4 5/10/8
f 1/4/4 3/3/3 7/7/6 5/10/8
f 6/13/7 8/14/5 4/15/2 2/16/1
