# Blender v2.76 (sub 0) OBJ File: ''
# www.blender.org
mtllib stone1.mtl
o Sphere.008
v 2.039438 0.991260 -0.229579
v 1.962248 0.991260 -0.303791
v 2.095783 0.991260 -0.275603
v 2.158669 0.991260 -0.217611
v 1.711459 0.991260 -0.080785
v 1.734308 0.991260 -0.218178
v 1.834469 0.991260 -0.303031
v 1.849983 0.991260 -0.173867
v 1.805060 0.991260 0.151219
v 1.772857 0.991260 0.035666
v 2.033984 0.991260 0.011901
v 1.998394 0.991260 0.166289
v 2.147799 0.991260 0.122400
v 2.175199 0.991260 -0.072346
v 2.220850 0.991260 -0.115025
v 2.231210 0.991260 0.026587
v 1.959372 0.991260 0.250401
v 2.101411 0.991260 0.244641
v 2.200189 0.991260 0.153331
v 1.670856 0.991260 0.154670
v 1.602774 0.991260 0.099924
v 1.727258 0.991260 0.212440
v 1.813471 0.991260 0.216186
v 1.568162 0.991260 -0.012585
v 1.647522 0.991260 -0.151636
v 2.039438 1.034779 -0.229579
v 2.158669 1.034779 -0.217611
v 2.095783 1.034779 -0.275603
v 1.962248 1.034779 -0.303791
v 1.711459 1.034779 -0.080785
v 1.849983 1.034779 -0.173867
v 1.834469 1.034779 -0.303031
v 1.734308 1.034779 -0.218178
v 1.805060 1.034779 0.151219
v 1.998394 1.034779 0.166289
v 2.033984 1.034779 0.011901
v 1.772857 1.034779 0.035666
v 2.147799 1.034779 0.122400
v 2.231210 1.034779 0.026587
v 2.220850 1.034779 -0.115025
v 2.175199 1.034779 -0.072346
v 1.959372 1.034779 0.250401
v 2.101411 1.034779 0.244641
v 2.200189 1.034779 0.153331
v 1.670856 1.034779 0.154670
v 1.602774 1.034779 0.099924
v 1.727258 1.034779 0.212440
v 1.813471 1.034779 0.216186
v 1.568162 1.034779 -0.012585
v 1.647522 1.034779 -0.151636
vt 0.723778 0.524706
vt 0.711120 0.512390
vt 0.733117 0.517171
vt 0.743432 0.526798
vt 0.669536 0.548926
vt 0.673440 0.526288
vt 0.690044 0.512390
vt 0.692476 0.533710
vt 0.684747 0.587284
vt 0.679549 0.568194
vt 0.722642 0.564530
vt 0.716620 0.589960
vt 0.741306 0.582867
vt 0.746016 0.550773
vt 0.753587 0.543779
vt 0.755157 0.567146
vt 0.710101 0.603794
vt 0.733535 0.602984
vt 0.749916 0.588020
vt 0.662609 0.587722
vt 0.651433 0.578625
vt 0.671854 0.597305
vt 0.686071 0.598008
vt 0.645835 0.560034
vt 0.659060 0.537178
vt 0.735598 0.483798
vt 0.751392 0.471916
vt 0.747480 0.485472
vt 0.731055 0.500865
vt 0.676615 0.490851
vt 0.704112 0.492137
vt 0.712967 0.511682
vt 0.691584 0.508277
vt 0.669982 0.450124
vt 0.695963 0.431469
vt 0.714183 0.450203
vt 0.675319 0.469176
vt 0.720789 0.424886
vt 0.740746 0.431269
vt 0.751392 0.452130
vt 0.741304 0.450013
vt 0.683268 0.422941
vt 0.703795 0.411610
vt 0.725535 0.416044
vt 0.650757 0.461111
vt 0.645835 0.474654
vt 0.653773 0.448141
vt 0.665614 0.440241
vt 0.650572 0.493483
vt 0.673654 0.506311
vt 0.887246 0.969237
vt 0.864735 0.969237
vt 0.864735 0.962060
vt 0.887246 0.962059
vt 0.758146 0.969237
vt 0.743737 0.969237
vt 0.743737 0.962060
vt 0.758146 0.962060
vt 0.716186 0.969237
vt 0.691468 0.969237
vt 0.691468 0.962060
vt 0.716186 0.962060
vt 0.668021 0.969237
vt 0.668021 0.962060
vt 0.944562 0.969237
vt 0.921142 0.969237
vt 0.921142 0.962059
vt 0.944562 0.962059
vt 0.901356 0.969237
vt 0.901356 0.962059
vt 0.843659 0.969237
vt 0.843659 0.962060
vt 0.730420 0.969237
vt 0.730420 0.962060
vt 0.822007 0.969237
vt 0.822007 0.962060
vt 0.645834 0.969238
vt 0.645834 0.962060
vt 0.803969 0.969237
vt 0.777562 0.969237
vt 0.777562 0.962060
vt 0.803969 0.962060
vt 0.966084 0.969237
vt 0.966084 0.962059
vn 0.000000 -1.000000 0.000000
vn 0.000000 1.000000 0.000000
vn 0.206500 0.000000 -0.978400
vn -0.626700 0.000000 0.779300
vn -0.228300 0.000000 0.973600
vn 0.040500 -0.000000 0.999200
vn 0.997300 0.000000 -0.073000
vn 0.855200 0.000000 -0.518300
vn -0.005900 0.000000 -1.000000
vn -0.715500 0.000000 0.698600
vn -0.646400 0.000000 -0.763000
vn 0.678800 0.000000 0.734300
vn -0.868500 -0.000000 -0.495700
vn 0.677900 0.000000 -0.735100
vn -0.043400 0.000000 0.999100
vn -0.608500 0.000000 -0.793600
vn 0.971300 0.000000 0.237700
vn -0.955800 0.000000 0.294000
usemtl None.004
s off
f 1/1/1 2/2/1 3/3/1 4/4/1
f 5/5/1 6/6/1 7/7/1 8/8/1
f 9/9/1 10/10/1 11/11/1 12/12/1
f 13/13/1 14/14/1 15/15/1 16/16/1
f 12/12/1 11/11/1 14/14/1 13/13/1
f 17/17/1 12/12/1 13/13/1 18/18/1
f 18/18/1 13/13/1 16/16/1 19/19/1
f 20/20/1 21/21/1 10/10/1 9/9/1
f 22/22/1 20/20/1 9/9/1 23/23/1
f 23/23/1 9/9/1 12/12/1 17/17/1
f 24/24/1 25/25/1 6/6/1 5/5/1
f 21/21/1 24/24/1 5/5/1 10/10/1
f 10/10/1 5/5/1 8/8/1 11/11/1
f 8/8/1 7/7/1 2/2/1 1/1/1
f 11/11/1 8/8/1 1/1/1 14/14/1
f 14/14/1 1/1/1 4/4/1 15/15/1
f 26/26/2 27/27/2 28/28/2 29/29/2
f 30/30/2 31/31/2 32/32/2 33/33/2
f 34/34/2 35/35/2 36/36/2 37/37/2
f 38/38/2 39/39/2 40/40/2 41/41/2
f 35/35/2 38/38/2 41/41/2 36/36/2
f 42/42/2 43/43/2 38/38/2 35/35/2
f 43/43/2 44/44/2 39/39/2 38/38/2
f 45/45/2 34/34/2 37/37/2 46/46/2
f 47/47/2 48/48/2 34/34/2 45/45/2
f 48/48/2 42/42/2 35/35/2 34/34/2
f 49/49/2 30/30/2 33/33/2 50/50/2
f 46/46/2 37/37/2 30/30/2 49/49/2
f 37/37/2 36/36/2 31/31/2 30/30/2
f 31/31/2 26/26/2 29/29/2 32/32/2
f 36/36/2 41/41/2 26/26/2 31/31/2
f 41/41/2 40/40/2 27/27/2 26/26/2
f 3/51/3 2/52/3 29/53/3 28/54/3
f 21/55/4 20/56/4 45/57/4 46/58/4
f 23/59/5 17/60/5 42/61/5 48/62/5
f 17/60/6 18/63/6 43/64/6 42/61/6
f 16/65/7 15/66/7 40/67/7 39/68/7
f 15/66/8 4/69/8 27/70/8 40/67/8
f 2/52/9 7/71/9 32/72/9 29/53/9
f 20/56/10 22/73/10 47/74/10 45/57/10
f 7/71/11 6/75/11 33/76/11 32/72/11
f 18/63/12 19/77/12 44/78/12 43/64/12
f 25/79/13 24/80/13 49/81/13 50/82/13
f 4/69/14 3/51/14 28/54/14 27/70/14
f 22/73/15 23/59/15 48/62/15 47/74/15
f 6/75/16 25/79/16 50/82/16 33/76/16
f 19/83/17 16/65/17 39/68/17 44/84/17
f 24/80/18 21/55/18 46/58/18 49/81/18
