# Blender v2.76 (sub 0) OBJ File: ''
# www.blender.org
mtllib stone5.mtl
o Sphere.003
v -0.343116 0.991260 0.484022
v -0.362339 0.991260 0.397718
v -0.317571 0.991260 0.435710
v -0.294438 0.991260 0.489657
v -0.493589 0.991260 0.596832
v -0.459746 0.991260 0.466385
v -0.408559 0.991260 0.384007
v -0.401851 0.991260 0.517741
v -0.500650 0.991260 0.791087
v -0.483853 0.991260 0.693951
v -0.364808 0.991260 0.681101
v -0.357470 0.991260 0.803992
v -0.266931 0.991260 0.776753
v -0.303968 0.991260 0.619134
v -0.271179 0.991260 0.577647
v -0.244226 0.991260 0.698306
v -0.372051 0.991260 0.881113
v -0.246480 0.991260 0.880026
v -0.202279 0.991260 0.804205
v -0.621751 0.991260 0.799452
v -0.667506 0.991260 0.753078
v -0.588627 0.991260 0.848493
v -0.510203 0.991260 0.849319
v -0.660007 0.991260 0.656361
v -0.542246 0.991260 0.531710
v -0.343116 1.034779 0.484022
v -0.294438 1.034779 0.489657
v -0.317571 1.034779 0.435710
v -0.362339 1.034779 0.397718
v -0.493589 1.034779 0.596832
v -0.401851 1.034779 0.517741
v -0.408559 1.034779 0.384007
v -0.459746 1.034779 0.466385
v -0.500650 1.034779 0.791087
v -0.357470 1.034779 0.803992
v -0.364808 1.034779 0.681101
v -0.483853 1.034779 0.693951
v -0.266931 1.034779 0.776753
v -0.244226 1.034779 0.698306
v -0.271179 1.034779 0.577647
v -0.303968 1.034779 0.619134
v -0.372051 1.034779 0.881113
v -0.246480 1.034779 0.880026
v -0.202279 1.034779 0.804205
v -0.621751 1.034779 0.799452
v -0.667506 1.034779 0.753078
v -0.588627 1.034779 0.848493
v -0.510203 1.034779 0.849319
v -0.660007 1.034779 0.656361
v -0.542246 1.034779 0.531710
vt 0.824430 0.442449
vt 0.835131 0.432541
vt 0.833436 0.442076
vt 0.827671 0.449854
vt 0.795855 0.430378
vt 0.817255 0.424365
vt 0.833245 0.424816
vt 0.814746 0.436881
vt 0.767588 0.445509
vt 0.782825 0.439834
vt 0.794545 0.455729
vt 0.777644 0.466983
vt 0.789046 0.477622
vt 0.808429 0.459251
vt 0.817065 0.460477
vt 0.802110 0.474341
vt 0.765443 0.471312
vt 0.776029 0.489115
vt 0.790505 0.489115
vt 0.756337 0.428948
vt 0.759144 0.418576
vt 0.752100 0.437741
vt 0.758497 0.448985
vt 0.773549 0.411610
vt 0.801093 0.418035
vt 0.714984 0.872696
vt 0.716376 0.864734
vt 0.723822 0.870923
vt 0.727730 0.879784
vt 0.690087 0.891199
vt 0.706897 0.880402
vt 0.727730 0.887736
vt 0.712303 0.891966
vt 0.659039 0.883204
vt 0.663714 0.859958
vt 0.682802 0.866883
vt 0.675187 0.885104
vt 0.672268 0.846918
vt 0.685738 0.847008
vt 0.703553 0.856929
vt 0.695455 0.860168
vt 0.650835 0.858646
vt 0.656897 0.838840
vt 0.670960 0.835407
vt 0.652036 0.901961
vt 0.657223 0.911372
vt 0.645835 0.894423
vt 0.649382 0.881983
vt 0.672868 0.914722
vt 0.698103 0.901948
vt 0.833123 0.977124
vt 0.823438 0.977124
vt 0.823438 0.969946
vt 0.833123 0.969946
vt 0.737847 0.977124
vt 0.727102 0.977124
vt 0.727102 0.969946
vt 0.737847 0.969946
vt 0.704405 0.977124
vt 0.681022 0.977124
vt 0.681022 0.969946
vt 0.704405 0.969946
vt 0.660310 0.977124
vt 0.660310 0.969946
vt 0.878208 0.977124
vt 0.857816 0.977124
vt 0.857816 0.969946
vt 0.878208 0.969946
vt 0.842804 0.977124
vt 0.842804 0.969946
vt 0.815486 0.977124
vt 0.815486 0.969946
vt 0.717341 0.977124
vt 0.717341 0.969946
vt 0.799489 0.977124
vt 0.799489 0.969946
vt 0.645834 0.977124
vt 0.645834 0.969946
vt 0.782132 0.977124
vt 0.753848 0.977124
vt 0.753848 0.969946
vt 0.782132 0.969946
vt 0.896995 0.977124
vt 0.896995 0.969946
vn 0.000000 -1.000000 -0.000000
vn 0.000000 1.000000 0.000000
vn 0.647000 0.000000 -0.762400
vn -0.711800 0.000000 0.702300
vn -0.224300 0.000000 0.974500
vn 0.008700 0.000000 1.000000
vn 0.975900 0.000000 -0.218000
vn 0.966800 0.000000 -0.255600
vn 0.284400 0.000000 -0.958700
vn -0.828700 0.000000 0.559700
vn -0.849400 0.000000 -0.527800
vn 0.863900 0.000000 0.503600
vn -0.726900 0.000000 -0.686700
vn 0.919100 0.000000 -0.394100
vn -0.010500 0.000000 0.999900
vn -0.620800 0.000000 -0.784000
vn 0.929700 0.000000 -0.368300
vn -0.997000 0.000000 -0.077300
usemtl None.008
s off
f 1/1/1 2/2/1 3/3/1 4/4/1
f 5/5/1 6/6/1 7/7/1 8/8/1
f 9/9/1 10/10/1 11/11/1 12/12/1
f 13/13/1 14/14/1 15/15/1 16/16/1
f 12/12/1 11/11/1 14/14/1 13/13/1
f 17/17/1 12/12/1 13/13/1 18/18/1
f 18/18/1 13/13/1 16/16/1 19/19/1
f 20/20/1 21/21/1 10/10/1 9/9/1
f 22/22/1 20/20/1 9/9/1 23/23/1
f 23/23/1 9/9/1 12/12/1 17/17/1
f 24/24/1 25/25/1 6/6/1 5/5/1
f 21/21/1 24/24/1 5/5/1 10/10/1
f 10/10/1 5/5/1 8/8/1 11/11/1
f 8/8/1 7/7/1 2/2/1 1/1/1
f 11/11/1 8/8/1 1/1/1 14/14/1
f 14/14/1 1/1/1 4/4/1 15/15/1
f 26/26/2 27/27/2 28/28/2 29/29/2
f 30/30/2 31/31/2 32/32/2 33/33/2
f 34/34/2 35/35/2 36/36/2 37/37/2
f 38/38/2 39/39/2 40/40/2 41/41/2
f 35/35/2 38/38/2 41/41/2 36/36/2
f 42/42/2 43/43/2 38/38/2 35/35/2
f 43/43/2 44/44/2 39/39/2 38/38/2
f 45/45/2 34/34/2 37/37/2 46/46/2
f 47/47/2 48/48/2 34/34/2 45/45/2
f 48/48/2 42/42/2 35/35/2 34/34/2
f 49/49/2 30/30/2 33/33/2 50/50/2
f 46/46/2 37/37/2 30/30/2 49/49/2
f 37/37/2 36/36/2 31/31/2 30/30/2
f 31/31/2 26/26/2 29/29/2 32/32/2
f 36/36/2 41/41/2 26/26/2 31/31/2
f 41/41/2 40/40/2 27/27/2 26/26/2
f 3/51/3 2/52/3 29/53/3 28/54/3
f 21/55/4 20/56/4 45/57/4 46/58/4
f 23/59/5 17/60/5 42/61/5 48/62/5
f 17/60/6 18/63/6 43/64/6 42/61/6
f 16/65/7 15/66/7 40/67/7 39/68/7
f 15/66/8 4/69/8 27/70/8 40/67/8
f 2/52/9 7/71/9 32/72/9 29/53/9
f 20/56/10 22/73/10 47/74/10 45/57/10
f 7/71/11 6/75/11 33/76/11 32/72/11
f 18/63/12 19/77/12 44/78/12 43/64/12
f 25/79/13 24/80/13 49/81/13 50/82/13
f 4/69/14 3/51/14 28/54/14 27/70/14
f 22/73/15 23/59/15 48/62/15 47/74/15
f 6/75/16 25/79/16 50/82/16 33/76/16
f 19/83/17 16/65/17 39/68/17 44/84/17
f 24/80/18 21/55/18 46/58/18 49/81/18
